Hormone primary name,Secreting Organ,color
GHRH,Hypothalamus,"rgb(142, 212, 200)"
GH,Pituitary,"rgb(191, 187, 219)"
IGF-1,Liver,"rgb(56, 108, 177)"
IGF-2,Liver,"rgb(56, 108, 177)"
Somatostatin ,Pancreas,"rgb(254, 181, 98)"
TRH,Hypothalamus,"rgb(142, 212, 200)"
TSH,Pituitary,"rgb(191, 187, 219)"
"T4, total",Thyroid,"rgb(252, 129, 114)"
GnRH,Hypothalamus,"rgb(142, 212, 200)"
FSH,Pituitary,"rgb(191, 187, 219)"
LH,Pituitary,"rgb(191, 187, 219)"
"Estradiol, total",Gonads,"rgb(127, 202, 127)"
Estrone,Gonads,"rgb(127, 202, 127)"
Estriol,Gonads,"rgb(127, 202, 127)"
"Testosteroneת, total",Adrenal Cortex/Gonads,"rgb(154, 212, 116)"
CRH,Hypothalamus,"rgb(142, 212, 200)"
ACTH,Pituitary,"rgb(191, 187, 219)"
,Adrenal Cortex,"rgb(180, 223, 105)"
Aldosterone,Adrenal Cortex,"rgb(180, 223, 105)"
Androstenedione,Adrenal Cortex/Gonads,"rgb(154, 212, 116)"
DHEA,Adrenal Cortex/Gonads,"rgb(154, 212, 116)"
DHEAS,Adrenal Cortex/Gonads,"rgb(154, 212, 116)"
17-OH Progesterone,Adrenal Cortex/Gonads,"rgb(154, 212, 116)"
Pregnenolone,Adrenal Cortex/Gonads,"rgb(154, 212, 116)"
Progesterone,Adrenal Cortex/Gonads,"rgb(154, 212, 116)"
17-OH Pregnenolone,Adrenal Cortex,"rgb(180, 223, 105)"
11-deoxycorticosterone (DOC),Adrenal Cortex,"rgb(180, 223, 105)"
Corticosterone,Adrenal Cortex,"rgb(180, 223, 105)"
11-deoxycortisol,Adrenal Cortex,"rgb(180, 223, 105)"
Epinephrine,Adrenal Medulla,"rgb(254, 219, 237)"
Norepinephrin,Adrenal Medulla,"rgb(254, 219, 237)"
Dopamine,Adrenal Medulla,"rgb(254, 219, 237)"
Renin,Kidney,"rgb(241, 2, 127)"
Angiotensin 2,Liver,"rgb(56, 108, 177)"
Prolactin,Pituitary,"rgb(191, 187, 219)"
ADH,Pituitary,"rgb(191, 187, 219)"
Leptin,Adipose Tissue,"rgb(117, 112, 180)"
Adiponectin,Adipose Tissue,"rgb(117, 112, 180)"
Insulin,Pancreas,"rgb(254, 181, 98)"
Glucagon ,Pancreas,"rgb(254, 181, 98)"
PTH,Parathyroid,"rgb(129, 178, 212)"
Calcidiol,Liver,"rgb(56, 108, 177)"
Calcitriol,Kidney,"rgb(241, 2, 127)"
Calcitonin,Thyroid,"rgb(252, 129, 114)"
FGF-23,Bone,"rgb(102, 102, 102)"
Osteocalcin,Bone,"rgb(102, 102, 102)"
Melatonin,Pineal,"rgb(256, 256, 180)"
GLP-1 total,GI Tract,"rgb(231, 172, 2)"
CCK,GI Tract,"rgb(231, 172, 2)"
Ghrelin,GI Tract,"rgb(231, 172, 2)"
AMH,Gonads,"rgb(127, 202, 127)"
BNP,Heart,"rgb(192, 91, 23)"
DHT,Gonads,"rgb(127, 202, 127)"
Erythropoietin,Kidney,"rgb(241, 2, 127)"
Gastrin,GI Tract,"rgb(231, 172, 2)"
inhibin B,Gonads,"rgb(127, 202, 127)"
Pancreatic polypeptide,Pancreas,"rgb(254, 181, 98)"
Serotonin,GI Tract,"rgb(231, 172, 2)"
Thrombopoietin,Liver,"rgb(56, 108, 177)"
Vasoactive intestinal peptide (VIP),GI Tract,"rgb(231, 172, 2)"
