Hormone,Secreting Organ,label,color2,Name,c
Hormone,Adipose Tissue,,"rgb(117, 112, 180)",,
Hormone,Adipose Tissue,Adiponectin: c1,"rgb(117, 112, 180)",Adiponectin,c1
Hormone,Adipose Tissue,Leptin: c2,"rgb(122, 117, 185)",Leptin,c2
Hormone,Adrenal Cortex,,"rgb(180, 223, 105)",,
Hormone,Adrenal Cortex,11-deoxycorticosterone (DOC): c3,"rgb(180, 223, 105)",11-deoxycorticosterone (DOC),c3
Hormone,Adrenal Cortex,11-deoxycortisol: c4,"rgb(185, 228, 110)",11-deoxycortisol,c4
Hormone,Adrenal Cortex,17-OH Pregnenolone: c5,"rgb(190, 233, 115)",17-OH Pregnenolone,c5
Hormone,Adrenal Cortex,Aldosterone: c6,"rgb(195, 238, 120)",Aldosterone,c6
Hormone,Adrenal Cortex,Corticosterone: c7,"rgb(200, 243, 125)",Corticosterone,c7
Hormone,Adrenal Cortex,Cortisol: c8,"rgb(205, 248, 130)",Cortisol,c8
Hormone,Adrenal Cortex/Gonads,,"rgb(154, 212, 116)",,
Hormone,Adrenal Cortex/Gonads,17-OH Progesterone: c9,"rgb(154, 212, 116)",17-OH Progesterone,c9
Hormone,Adrenal Cortex/Gonads,Androstenedione: c10,"rgb(159, 217, 121)",Androstenedione,c10
Hormone,Adrenal Cortex/Gonads,DHEA: c11,"rgb(164, 222, 126)",DHEA,c11
Hormone,Adrenal Cortex/Gonads,DHEAS: c12,"rgb(169, 227, 131)",DHEAS,c12
Hormone,Adrenal Cortex/Gonads,Pregnenolone: c13,"rgb(174, 232, 136)",Pregnenolone,c13
Hormone,Adrenal Cortex/Gonads,Progesterone: c14,"rgb(179, 237, 141)",Progesterone,c14
Hormone,Adrenal Cortex/Gonads,"Testosterone, free: c15","rgb(184, 242, 146)","Testosterone, free",c15
Hormone,Adrenal Cortex/Gonads,"Testosterone, total: c16","rgb(189, 247, 151)","Testosterone, total",c16
Hormone,Adrenal Medulla,,"rgb(254, 219, 237)",,
Hormone,Adrenal Medulla,Dopamine: c17,"rgb(254, 219, 237)",Dopamine,c17
Hormone,Adrenal Medulla,Epinephrine: c18,"rgb(256, 224, 242)",Epinephrine,c18
Hormone,Adrenal Medulla,Norepinephrin: c19,"rgb(256, 229, 247)",Norepinephrin,c19
Hormone,Bone,,"rgb(102, 102, 102)",,
Hormone,Bone,FGF-23: c20,"rgb(102, 102, 102)",FGF-23,c20
Hormone,Bone,Osteocalcin: c21,"rgb(107, 107, 107)",Osteocalcin,c21
Hormone,GI Tract,,"rgb(231, 172, 2)",,
Hormone,GI Tract,CCK: c22,"rgb(231, 172, 2)",CCK,c22
Hormone,GI Tract,GLP-1 total: c23,"rgb(236, 177, 7)",GLP-1 total,c23
Hormone,GI Tract,Gastrin: c24,"rgb(241, 182, 12)",Gastrin,c24
Hormone,GI Tract,Ghrelin: c25,"rgb(246, 187, 17)",Ghrelin,c25
Hormone,GI Tract,Serotonin: c26,"rgb(251, 192, 22)",Serotonin,c26
Hormone,GI Tract,Vasoactive intestinal peptide (VIP): c27,"rgb(256, 197, 27)",Vasoactive intestinal peptide (VIP),c27
Hormone,Gonads,,"rgb(127, 202, 127)",,
Hormone,Gonads,AMH: c28,"rgb(127, 202, 127)",AMH,c28
Hormone,Gonads,DHT: c29,"rgb(132, 207, 132)",DHT,c29
Hormone,Gonads,"Estradiol, total: c30","rgb(137, 212, 137)","Estradiol, total",c30
Hormone,Gonads,Estriol: c31,"rgb(142, 217, 142)",Estriol,c31
Hormone,Gonads,Estrone: c32,"rgb(147, 222, 147)",Estrone,c32
Hormone,Gonads,Inhibin A: c33,"rgb(152, 227, 152)",Inhibin A,c33
Hormone,Gonads,hCG: c34,"rgb(157, 232, 157)",hCG,c34
Hormone,Gonads,inhibin B: c35,"rgb(162, 237, 162)",inhibin B,c35
Hormone,Heart,,"rgb(192, 91, 23)",,
Hormone,Heart,BNP: c36,"rgb(192, 91, 23)",BNP,c36
Hormone,Hypothalamus,,"rgb(142, 212, 200)",,
Hormone,Hypothalamus,CRH: c37,"rgb(142, 212, 200)",CRH,c37
Hormone,Hypothalamus,GHRH: c38,"rgb(147, 217, 205)",GHRH,c38
Hormone,Hypothalamus,GnRH: c39,"rgb(152, 222, 210)",GnRH,c39
Hormone,Hypothalamus,TRH: c40,"rgb(157, 227, 215)",TRH,c40
Hormone,Kidney,,"rgb(241, 2, 127)",,
Hormone,Kidney,Calcitriol: c41,"rgb(241, 2, 127)",Calcitriol,c41
Hormone,Kidney,Erythropoietin: c42,"rgb(246, 7, 132)",Erythropoietin,c42
Hormone,Kidney,Renin: c43,"rgb(251, 12, 137)",Renin,c43
Hormone,Liver,,"rgb(56, 108, 177)",,
Hormone,Liver,Angiotensin 2: c44,"rgb(56, 108, 177)",Angiotensin 2,c44
Hormone,Liver,Calcidiol: c45,"rgb(61, 113, 182)",Calcidiol,c45
Hormone,Liver,IGF-1: c46,"rgb(66, 118, 187)",IGF-1,c46
Hormone,Liver,IGF-2: c47,"rgb(71, 123, 192)",IGF-2,c47
Hormone,Liver,Thrombopoietin: c48,"rgb(76, 128, 197)",Thrombopoietin,c48
Hormone,Pancreas,,"rgb(254, 181, 98)",,
Hormone,Pancreas,Glucagon : c49,"rgb(254, 181, 98)",Glucagon ,c49
Hormone,Pancreas,Insulin: c50,"rgb(256, 186, 103)",Insulin,c50
Hormone,Pancreas,Pancreatic polypeptide: c51,"rgb(256, 191, 108)",Pancreatic polypeptide,c51
Hormone,Pancreas,Somatostatin : c52,"rgb(256, 196, 113)",Somatostatin ,c52
Hormone,Parathyroid,,"rgb(129, 178, 212)",,
Hormone,Parathyroid,PTH: c53,"rgb(129, 178, 212)",PTH,c53
Hormone,Pineal,,"rgb(256, 256, 180)",,
Hormone,Pineal,Melatonin: c54,"rgb(256, 256, 180)",Melatonin,c54
Hormone,Pituitary,,"rgb(191, 187, 219)",,
Hormone,Pituitary,ACTH: c55,"rgb(191, 187, 219)",ACTH,c55
Hormone,Pituitary,ADH: c56,"rgb(196, 192, 224)",ADH,c56
Hormone,Pituitary,FSH: c57,"rgb(201, 197, 229)",FSH,c57
Hormone,Pituitary,GH: c58,"rgb(206, 202, 234)",GH,c58
Hormone,Pituitary,LH: c59,"rgb(211, 207, 239)",LH,c59
Hormone,Pituitary,Prolactin: c60,"rgb(216, 212, 244)",Prolactin,c60
Hormone,Pituitary,TSH: c61,"rgb(221, 217, 249)",TSH,c61
Hormone,Thyroid,,"rgb(252, 129, 114)",,
Hormone,Thyroid,Calcitonin: c62,"rgb(252, 129, 114)",Calcitonin,c62
Hormone,Thyroid,"T3, reverse: c63","rgb(256, 134, 119)","T3, reverse",c63
Hormone,Thyroid,"T3, total: c64","rgb(256, 139, 124)","T3, total",c64
Hormone,Thyroid,"T4, total: c65","rgb(256, 144, 129)","T4, total",c65
