<?xml version="1.0" encoding="utf-8"?>
<!DOCTYPE svg PUBLIC '-//W3C//DTD SVG 1.0//EN' 'http://www.w3.org/TR/2001/REC-SVG-20010904/DTD/svg10.dtd'>


<svg stroke-dasharray="none" shape-rendering="auto"
     xmlns="http://www.w3.org/2000/svg" font-family="&apos;Dialog&apos;"
     width="2512" text-rendering="auto" fill-opacity="1"
     contentScriptType="text/ecmascript" color-interpolation="auto"
     color-rendering="auto" preserveAspectRatio="xMidYMid meet" font-size="12px"
     fill="black" xmlns:xlink="http://www.w3.org/1999/xlink" stroke="black"
     image-rendering="auto" stroke-miterlimit="10" zoomAndPan="magnify"
     version="1.0" stroke-linecap="square" stroke-linejoin="miter"
     contentStyleType="text/css" font-style="normal" height="2512"
     stroke-width="1" stroke-dashoffset="0" font-weight="normal"
     stroke-opacity="1">
    <!--Generated with Paver-->
    <defs id="genericDefs"/>
    <g>
        <defs id="defs1">
            <clipPath clipPathUnits="userSpaceOnUse" id="clipPath1">
                <path d="M0 0 L2512 0 L2512 2512 L0 2512 L0 0 Z"/>
            </clipPath>
            <clipPath clipPathUnits="userSpaceOnUse" id="clipPath2">
                <path d="M-6 -6 L2506 -6 L2506 2506 L-6 2506 L-6 -6 Z"/>
            </clipPath>
        </defs>
        <g fill="rgb(102,102,102)" font-size="11px" font-family="sans-serif"
           stroke="rgb(102,102,102)">
            <rect x="0" width="2512" height="2512" y="0"
                  clip-path="url(#clipPath1)" stroke="none"/>
        </g>
        <g font-size="11px" transform="translate(6,6)" fill="rgb(117,112,180)"
           text-rendering="optimizeLegibility" image-rendering="optimizeSpeed"
           color-rendering="optimizeSpeed" font-family="sans-serif"
           stroke="rgb(117,112,180)" color-interpolation="sRGB">
            <path d="M1796.2344 0 L1892.4281 75.1073 L1998.4755 176.102 L2354.7817 807.7896 L1086.3384 2500 L337.852 2500 L333.1151 2497.8354 L21.3815 2295.3379 L14.5428 2289.834 L7.8967 2284.4333 L0 2277.9146 L0 4.7021 L5.4202 0 Z"
                  clip-path="url(#clipPath2)" fill-rule="evenodd"
                  node-name="Adiponectin" node-id="c1" stroke="none"/>
            <path clip-path="url(#clipPath2)" fill="rgb(122,117,185)"
                  node-id="c2" fill-rule="evenodd"
                  d="M1796.2344 0 L1813.5632 0 L1892.4281 75.1073 Z"
                  stroke="none" node-name="Leptin"/>
            <path clip-path="url(#clipPath2)" fill="rgb(180,223,105)"
                  node-id="c3" fill-rule="evenodd"
                  d="M2500 2363.9004 L2500 2372.4888 L2496.0869 2365.3127 Z"
                  stroke="none" node-name="11-deoxycorticosterone (DOC)"/>
            <path clip-path="url(#clipPath2)" fill="rgb(185,228,110)"
                  node-id="c4" fill-rule="evenodd"
                  d="M2500 2466.1213 L2500 2489.9497 L2492.4521 2500 L2483.407 2500 Z"
                  stroke="none" node-name="11-deoxycortisol"/>
            <path clip-path="url(#clipPath2)" fill="rgb(190,233,115)"
                  node-id="c5" fill-rule="evenodd"
                  d="M2500 2320.2095 L2500 2363.9004 L2496.0869 2365.3127 L2467.7681 2331.5854 Z"
                  stroke="none" node-name="17-OH Pregnenolone"/>
            <path clip-path="url(#clipPath2)" fill="rgb(195,238,120)"
                  node-id="c6" fill-rule="evenodd"
                  d="M2500 2269.3967 L2492.8162 2265.1553 L2500 2259.8174 Z"
                  stroke="none" node-name="Aldosterone"/>
            <path clip-path="url(#clipPath2)" fill="rgb(200,243,125)"
                  node-id="c7" fill-rule="evenodd"
                  d="M2435.3989 2307.8196 L2492.8162 2265.1553 L2500 2269.3967 L2500 2320.2095 L2467.7681 2331.5854 Z"
                  stroke="none" node-name="Corticosterone"/>
            <path clip-path="url(#clipPath2)" fill="rgb(205,248,130)"
                  node-id="c8" fill-rule="evenodd"
                  d="M2435.3989 2307.8196 L2467.7681 2331.5854 L2496.0869 2365.3127 L2500 2372.4888 L2500 2466.1213 L2483.407 2500 L2194.3884 2500 L2190.6514 2489.6804 Z"
                  stroke="none" node-name="Cortisol"/>
            <path clip-path="url(#clipPath2)" fill="rgb(154,212,116)"
                  node-id="c9" fill-rule="evenodd"
                  d="M1120.8145 2454.0061 L1131.1959 2440.1562 L1148.0221 2452.5803 L1145.5093 2464.8521 Z"
                  stroke="none" node-name="17-OH Progesterone"/>
            <path clip-path="url(#clipPath2)" fill="rgb(159,217,121)"
                  node-id="c10" fill-rule="evenodd"
                  d="M1148.0221 2452.5803 L1160.429 2445.4661 L1169.4015 2458.533 L1147.9971 2468.2097 L1145.5093 2464.8521 Z"
                  stroke="none" node-name="Androstendione"/>
            <path clip-path="url(#clipPath2)" fill="rgb(164,222,126)"
                  node-id="c11" fill-rule="evenodd"
                  d="M1199.5719 2500 L1151.7246 2500 L1146.988 2492.8906 L1147.9971 2468.2097 L1169.4015 2458.533 Z"
                  stroke="none" node-name="DHEA"/>
            <path clip-path="url(#clipPath2)" fill="rgb(169,227,131)"
                  node-id="c12" fill-rule="evenodd"
                  d="M1199.5719 2500 L1169.4015 2458.533 L1160.429 2445.4661 L1144.906 2421.8657 L2354.7817 807.7896 L2424.7068 822.0014 L2500 855.6165 L2500 2259.8174 L2190.6514 2489.6804 L2155.9458 2500 Z"
                  stroke="none" node-name="DHEAS"/>
            <path clip-path="url(#clipPath2)" fill="rgb(174,232,136)"
                  node-id="c13" fill-rule="evenodd"
                  d="M1131.1959 2440.1562 L1144.906 2421.8657 L1160.429 2445.4661 L1148.0221 2452.5803 Z"
                  stroke="none" node-name="Pregnenolone"/>
            <path clip-path="url(#clipPath2)" fill="rgb(179,237,141)"
                  node-id="c14" fill-rule="evenodd"
                  d="M1146.988 2492.8906 L1151.7246 2500 L1142.2677 2500 Z"
                  stroke="none" node-name="Progesterone"/>
            <path clip-path="url(#clipPath2)" fill="rgb(184,242,146)"
                  node-id="c15" fill-rule="evenodd"
                  d="M1142.2677 2500 L1086.3384 2500 L1120.8145 2454.0061 L1145.5093 2464.8521 L1147.9971 2468.2097 L1146.988 2492.8906 Z"
                  stroke="none" node-name="Testosterone"/>
            <path clip-path="url(#clipPath2)" fill="rgb(254,219,237)"
                  node-id="c16" fill-rule="evenodd"
                  d="M10.0591 2286.1907 L14.5428 2289.834 L14.62 2290.2786 L9.7079 2287.6938 Z"
                  stroke="none" node-name="Dopamine"/>
            <path clip-path="url(#clipPath2)" fill="rgb(255,224,242)"
                  node-id="c17" fill-rule="evenodd"
                  d="M10.0591 2286.1907 L9.7079 2287.6938 L0 2287.8049 L0 2286.7734 L7.8967 2284.4333 Z"
                  stroke="none" node-name="Epinephrine"/>
            <path clip-path="url(#clipPath2)" fill="rgb(255,229,247)"
                  node-id="c18" fill-rule="evenodd"
                  d="M0 2287.8049 L9.7079 2287.6938 L14.62 2290.2786 L16.1557 2299.1245 L0 2312.3127 Z"
                  stroke="none" node-name="Norepinephrin"/>
            <path clip-path="url(#clipPath2)" fill="rgb(102,102,102)"
                  node-id="c19" fill-rule="evenodd"
                  d="M2214.4751 0 L2220.6665 0 L2215.387 3.2083 Z" stroke="none"
                  node-name="FGF23"/>
            <path clip-path="url(#clipPath2)" fill="rgb(107,107,107)"
                  node-id="c20" fill-rule="evenodd"
                  d="M2214.4751 0 L2215.387 3.2083 L2070.4072 91.3128 L2049.4592 0 Z"
                  stroke="none" node-name="Osteocalcin"/>
            <path clip-path="url(#clipPath2)" fill="rgb(231,172,2)"
                  node-id="c21" fill-rule="evenodd"
                  d="M272.332 2500 L267.8305 2500 L270.4533 2494.0188 Z"
                  stroke="none" node-name="CCK"/>
            <path clip-path="url(#clipPath2)" fill="rgb(236,177,7)"
                  node-id="c22" fill-rule="evenodd"
                  d="M290.2448 2469.9875 L328.9868 2495.1538 L327.741 2500 L272.332 2500 L270.4533 2494.0188 L270.9627 2492.4895 Z"
                  stroke="none" node-name="GLP-1 total"/>
            <path clip-path="url(#clipPath2)" fill="rgb(241,182,12)"
                  node-id="c23" fill-rule="evenodd"
                  d="M328.9868 2495.1538 L333.1151 2497.8354 L332.4161 2500 L327.741 2500 Z"
                  stroke="none" node-name="Gastrin"/>
            <path clip-path="url(#clipPath2)" fill="rgb(246,187,17)"
                  node-id="c24" fill-rule="evenodd"
                  d="M279.3195 2462.8906 L290.2448 2469.9875 L270.9627 2492.4895 Z"
                  stroke="none" node-name="Ghrelin"/>
            <path clip-path="url(#clipPath2)" fill="rgb(251,192,22)"
                  node-id="c25" fill-rule="evenodd"
                  d="M0 2494.3088 L0 2312.3127 L16.1557 2299.1245 L21.3815 2295.3379 L279.3195 2462.8906 L270.9627 2492.4895 L270.4533 2494.0188 L267.8305 2500 L3.9358 2500 Z"
                  stroke="none" node-name="Serotonin"/>
            <path clip-path="url(#clipPath2)" fill="rgb(255,197,27)"
                  node-id="c26" fill-rule="evenodd"
                  d="M0 2494.3088 L3.9358 2500 L0 2500 Z" stroke="none"
                  node-name="Vasoactive intestinal peptide (VIP)"/>
            <path clip-path="url(#clipPath2)" fill="rgb(127,202,127)"
                  node-id="c27" fill-rule="evenodd"
                  d="M2500 799.9265 L2500 835.5215 L2483.8372 848.4005 L2439.8481 828.7614 L2439.821 821.437 L2440.375 816.5676 L2496.7695 797.0101 Z"
                  stroke="none" node-name="AMH"/>
            <path clip-path="url(#clipPath2)" fill="rgb(137,212,137)"
                  node-id="c29" fill-rule="evenodd"
                  d="M2500 835.5215 L2500 855.6165 L2483.8372 848.4005 Z"
                  stroke="none" node-name="DHT"/>
            <path clip-path="url(#clipPath2)" fill="rgb(142,217,142)"
                  node-id="c30" fill-rule="evenodd"
                  d="M2500 799.9265 L2496.7695 797.0101 L2500 795.8898 Z"
                  stroke="none" node-name="Estradiol"/>
            <path clip-path="url(#clipPath2)" fill="rgb(147,222,147)"
                  node-id="c31" fill-rule="evenodd"
                  d="M2440.375 816.5676 L2439.821 821.437 L2435.3381 818.3145 Z"
                  stroke="none" node-name="Estriol"/>
            <path clip-path="url(#clipPath2)" fill="rgb(152,227,152)"
                  node-id="c32" fill-rule="evenodd"
                  d="M2430.4858 819.9972 L2429.8389 824.2927 L2424.7068 822.0014 Z"
                  stroke="none" node-name="Estrone"/>
            <path clip-path="url(#clipPath2)" fill="rgb(167,242,167)"
                  node-id="c35" fill-rule="evenodd"
                  d="M2439.8481 828.7614 L2429.8389 824.2927 L2430.4858 819.9972 L2435.3381 818.3145 L2439.821 821.437 Z"
                  stroke="none" node-name="inhibin B"/>
            <path clip-path="url(#clipPath2)" fill="rgb(192,91,23)"
                  node-id="c36" fill-rule="evenodd"
                  d="M337.852 2500 L332.4161 2500 L333.1151 2497.8354 Z"
                  stroke="none" node-name="BNP"/>
            <path clip-path="url(#clipPath2)" fill="rgb(142,212,200)"
                  node-id="c37" fill-rule="evenodd"
                  d="M15.8341 2297.2725 L16.9171 2297.2446 L17.5061 2298.146 L16.1557 2299.1245 Z"
                  stroke="none" node-name="CRH"/>
            <path clip-path="url(#clipPath2)" fill="rgb(147,217,205)"
                  node-id="c38" fill-rule="evenodd"
                  d="M20.2765 2296.1387 L17.5061 2298.146 L16.9171 2297.2446 L19.424 2295.3374 Z"
                  stroke="none" node-name="GHRH"/>
            <path clip-path="url(#clipPath2)" fill="rgb(152,222,210)"
                  node-id="c39" fill-rule="evenodd"
                  d="M19.9483 2294.1843 L21.3815 2295.3379 L20.2765 2296.1387 L19.424 2295.3374 Z"
                  stroke="none" node-name="GnRH"/>
            <path clip-path="url(#clipPath2)" fill="rgb(157,227,215)"
                  node-id="c40" fill-rule="evenodd"
                  d="M19.9483 2294.1843 L19.424 2295.3374 L16.9171 2297.2446 L15.8341 2297.2725 L14.5428 2289.834 Z"
                  stroke="none" node-name="TRH"/>
            <path clip-path="url(#clipPath2)" fill="rgb(241,2,127)"
                  node-id="c41" fill-rule="evenodd"
                  d="M2500 2496.5044 L2494.9412 2496.6855 L2500 2489.9497 Z"
                  stroke="none" node-name="Calcitriol"/>
            <path clip-path="url(#clipPath2)" fill="rgb(246,7,132)"
                  node-id="c42" fill-rule="evenodd"
                  d="M2494.9412 2496.6855 L2500 2496.5044 L2500 2500 L2492.4521 2500 Z"
                  stroke="none" node-name="Erythropoietin"/>
            <path clip-path="url(#clipPath2)" fill="rgb(56,108,177)"
                  node-id="c43" fill-rule="evenodd"
                  d="M2212.7222 555.9353 L2189.9773 515.6115 L2226.2888 524.9869 Z"
                  stroke="none" node-name="Angiotensin 2"/>
            <path clip-path="url(#clipPath2)" fill="rgb(61,113,182)"
                  node-id="c44" fill-rule="evenodd"
                  d="M2500 721.243 L2500 795.8898 L2424.7068 822.0014 L2354.7817 807.7896 L2332.4131 768.1329 Z"
                  stroke="none" node-name="Calcidiol"/>
            <path clip-path="url(#clipPath2)" fill="rgb(66,118,187)"
                  node-id="c45" fill-rule="evenodd"
                  d="M2500 452.0705 L2500 721.243 L2332.4131 768.1329 L2212.7222 555.9353 L2226.2888 524.9869 Z"
                  stroke="none" node-name="IGF-1"/>
            <path clip-path="url(#clipPath2)" fill="rgb(71,123,192)"
                  node-id="c46" fill-rule="evenodd"
                  d="M2500 452.0705 L2226.2888 524.9869 L2189.9773 515.6115 L2000.9382 180.4681 L2003.3776 170.3236 L2070.4072 91.3128 L2220.6665 0 L2369.875 0 L2500 55.7204 Z"
                  stroke="none" node-name="IGF-2"/>
            <path clip-path="url(#clipPath2)" fill="rgb(76,128,197)"
                  node-id="c47" fill-rule="evenodd"
                  d="M2000.9382 180.4681 L1998.4755 176.102 L2003.3776 170.3236 Z"
                  stroke="none" node-name="Thrombopoietin"/>
            <path clip-path="url(#clipPath2)" fill="rgb(254,181,98)"
                  node-id="c48" fill-rule="evenodd"
                  d="M2166.6025 2500 L2161.5273 2500 L2161.2964 2498.4089 L2166.1538 2496.9646 Z"
                  stroke="none" node-name="Glucagon"/>
            <path clip-path="url(#clipPath2)" fill="rgb(255,186,103)"
                  node-id="c49" fill-rule="evenodd"
                  d="M2174.7781 2500 L2174.0771 2494.6086 L2190.6514 2489.6804 L2194.3884 2500 Z"
                  stroke="none" node-name="Insulin"/>
            <path clip-path="url(#clipPath2)" fill="rgb(255,191,108)"
                  node-id="c50" fill-rule="evenodd"
                  d="M2174.7781 2500 L2166.6025 2500 L2166.1538 2496.9646 L2174.0771 2494.6086 Z"
                  stroke="none" node-name="Pancreatic polypeptide"/>
            <path clip-path="url(#clipPath2)" fill="rgb(255,196,113)"
                  node-id="c51" fill-rule="evenodd"
                  d="M2161.5273 2500 L2155.9458 2500 L2161.2964 2498.4089 Z"
                  stroke="none" node-name="Somatostatin"/>
            <path clip-path="url(#clipPath2)" fill="rgb(129,178,212)"
                  node-id="c52" fill-rule="evenodd"
                  d="M5.4202 0 L0 4.7021 L0 0 Z" stroke="none" node-name="PTH"/>
            <path clip-path="url(#clipPath2)" fill="rgb(255,255,180)"
                  node-id="c53" fill-rule="evenodd"
                  d="M0 2277.9146 L7.8967 2284.4333 L0 2286.7734 Z"
                  stroke="none" node-name="Melatonin"/>
            <path clip-path="url(#clipPath2)" fill="rgb(191,187,219)"
                  node-id="c54" fill-rule="evenodd"
                  d="M2500 51.4511 L2500 54.0213 L2498.8108 55.2111 L2494.3435 53.2982 Z"
                  stroke="none" node-name="ACTH"/>
            <path clip-path="url(#clipPath2)" fill="rgb(196,192,224)"
                  node-id="c55" fill-rule="evenodd"
                  d="M2500 54.0213 L2500 55.7204 L2498.8108 55.2111 Z"
                  stroke="none" node-name="ADH"/>
            <path clip-path="url(#clipPath2)" fill="rgb(201,197,229)"
                  node-id="c56" fill-rule="evenodd"
                  d="M2500 39.0391 L2500 51.4511 L2494.3435 53.2982 L2489.9751 51.4277 L2492.9036 39.722 Z"
                  stroke="none" node-name="FSH"/>
            <path clip-path="url(#clipPath2)" fill="rgb(206,202,234)"
                  node-id="c57" fill-rule="evenodd"
                  d="M2488.2053 0 L2500 0 L2500 14.534 L2490.9382 14.2019 Z"
                  stroke="none" node-name="GH"/>
            <path clip-path="url(#clipPath2)" fill="rgb(211,207,239)"
                  node-id="c58" fill-rule="evenodd"
                  d="M2500 14.534 L2500 39.0391 L2492.9036 39.722 L2485.6343 36.6221 L2490.9382 14.2019 Z"
                  stroke="none" node-name="LH"/>
            <path clip-path="url(#clipPath2)" fill="rgb(216,212,244)"
                  node-id="c59" fill-rule="evenodd"
                  d="M2488.2053 0 L2490.9382 14.2019 L2485.6343 36.6221 L2478.5522 46.5363 L2369.875 0 Z"
                  stroke="none" node-name="Prolactin"/>
            <path clip-path="url(#clipPath2)" fill="rgb(221,217,249)"
                  node-id="c60" fill-rule="evenodd"
                  d="M2489.9751 51.4277 L2478.5522 46.5363 L2485.6343 36.6221 L2492.9036 39.722 Z"
                  stroke="none" node-name="TSH"/>
            <path clip-path="url(#clipPath2)" fill="rgb(252,129,114)"
                  node-id="c61" fill-rule="evenodd"
                  d="M1846.566 0 L1848.8024 0 L1847.6775 2.1518 Z" stroke="none"
                  node-name="Calcitonin"/>
            <path clip-path="url(#clipPath2)" fill="rgb(255,134,119)"
                  node-id="c62" fill-rule="evenodd"
                  d="M2052.5962 13.6745 L2041.869 0 L2049.4592 0 Z"
                  stroke="none" node-name="reverse T3"/>
            <path clip-path="url(#clipPath2)" fill="rgb(255,139,124)"
                  node-id="c63" fill-rule="evenodd"
                  d="M1846.566 0 L1847.6775 2.1518 L1838.6421 23.8839 L1813.5632 0 Z"
                  stroke="none" node-name="total T3"/>
            <path clip-path="url(#clipPath2)" fill="rgb(255,144,129)"
                  node-id="c64" fill-rule="evenodd"
                  d="M1848.8024 0 L2041.869 0 L2052.5962 13.6745 L2070.4072 91.3128 L1998.4755 176.102 L1838.6421 23.8839 L1847.6775 2.1518 Z"
                  stroke="none" node-name="total T4"/>
        </g>
        <g stroke-linecap="butt" font-size="11px" transform="translate(6,6)"
           text-rendering="optimizeLegibility" image-rendering="optimizeSpeed"
           color-rendering="optimizeSpeed" font-family="sans-serif"
           stroke-linejoin="bevel" color-interpolation="sRGB" stroke-width="0">
            <path fill="none" d="M1846.566 0 L1848.8024 0 L1847.6775 2.1518 Z"
                  clip-path="url(#clipPath2)" fill-rule="evenodd"
                  node-name="Calcitonin" node-id="c61"/>
            <path fill="none" d="M2052.5962 13.6745 L2041.869 0 L2049.4592 0 Z"
                  clip-path="url(#clipPath2)" fill-rule="evenodd"
                  node-name="reverse T3" node-id="c62"/>
            <path fill="none"
                  d="M1846.566 0 L1847.6775 2.1518 L1838.6421 23.8839 L1813.5632 0 Z"
                  clip-path="url(#clipPath2)" fill-rule="evenodd"
                  node-name="total T3" node-id="c63"/>
            <path fill="none"
                  d="M1848.8024 0 L2041.869 0 L2052.5962 13.6745 L2070.4072 91.3128 L1998.4755 176.102 L1838.6421 23.8839 L1847.6775 2.1518 Z"
                  clip-path="url(#clipPath2)" fill-rule="evenodd"
                  node-name="total T4" node-id="c64"/>
            <path fill="none"
                  d="M2500 51.4511 L2500 54.0213 L2498.8108 55.2111 L2494.3435 53.2982 Z"
                  clip-path="url(#clipPath2)" fill-rule="evenodd"
                  node-name="ACTH" node-id="c54"/>
            <path fill="none"
                  d="M2500 54.0213 L2500 55.7204 L2498.8108 55.2111 Z"
                  clip-path="url(#clipPath2)" fill-rule="evenodd"
                  node-name="ADH" node-id="c55"/>
            <path fill="none"
                  d="M2500 39.0391 L2500 51.4511 L2494.3435 53.2982 L2489.9751 51.4277 L2492.9036 39.722 Z"
                  clip-path="url(#clipPath2)" fill-rule="evenodd"
                  node-name="FSH" node-id="c56"/>
            <path fill="none"
                  d="M2488.2053 0 L2500 0 L2500 14.534 L2490.9382 14.2019 Z"
                  clip-path="url(#clipPath2)" fill-rule="evenodd" node-name="GH"
                  node-id="c57"/>
            <path fill="none"
                  d="M2500 14.534 L2500 39.0391 L2492.9036 39.722 L2485.6343 36.6221 L2490.9382 14.2019 Z"
                  clip-path="url(#clipPath2)" fill-rule="evenodd" node-name="LH"
                  node-id="c58"/>
            <path fill="none"
                  d="M2488.2053 0 L2490.9382 14.2019 L2485.6343 36.6221 L2478.5522 46.5363 L2369.875 0 Z"
                  clip-path="url(#clipPath2)" fill-rule="evenodd"
                  node-name="Prolactin" node-id="c59"/>
            <path fill="none"
                  d="M2489.9751 51.4277 L2478.5522 46.5363 L2485.6343 36.6221 L2492.9036 39.722 Z"
                  clip-path="url(#clipPath2)" fill-rule="evenodd"
                  node-name="TSH" node-id="c60"/>
            <path fill="none" d="M0 2277.9146 L7.8967 2284.4333 L0 2286.7734 Z"
                  clip-path="url(#clipPath2)" fill-rule="evenodd"
                  node-name="Melatonin" node-id="c53"/>
            <path fill="none" d="M5.4202 0 L0 4.7021 L0 0 Z"
                  clip-path="url(#clipPath2)" fill-rule="evenodd"
                  node-name="PTH" node-id="c52"/>
            <path fill="none"
                  d="M2166.6025 2500 L2161.5273 2500 L2161.2964 2498.4089 L2166.1538 2496.9646 Z"
                  clip-path="url(#clipPath2)" fill-rule="evenodd"
                  node-name="Glucagon" node-id="c48"/>
            <path fill="none"
                  d="M2174.7781 2500 L2174.0771 2494.6086 L2190.6514 2489.6804 L2194.3884 2500 Z"
                  clip-path="url(#clipPath2)" fill-rule="evenodd"
                  node-name="Insulin" node-id="c49"/>
            <path fill="none"
                  d="M2174.7781 2500 L2166.6025 2500 L2166.1538 2496.9646 L2174.0771 2494.6086 Z"
                  clip-path="url(#clipPath2)" fill-rule="evenodd"
                  node-name="Pancreatic polypeptide" node-id="c50"/>
            <path fill="none"
                  d="M2161.5273 2500 L2155.9458 2500 L2161.2964 2498.4089 Z"
                  clip-path="url(#clipPath2)" fill-rule="evenodd"
                  node-name="Somatostatin" node-id="c51"/>
            <path fill="none"
                  d="M2212.7222 555.9353 L2189.9773 515.6115 L2226.2888 524.9869 Z"
                  clip-path="url(#clipPath2)" fill-rule="evenodd"
                  node-name="Angiotensin 2" node-id="c43"/>
            <path fill="none"
                  d="M2500 721.243 L2500 795.8898 L2424.7068 822.0014 L2354.7817 807.7896 L2332.4131 768.1329 Z"
                  clip-path="url(#clipPath2)" fill-rule="evenodd"
                  node-name="Calcidiol" node-id="c44"/>
            <path fill="none"
                  d="M2500 452.0705 L2500 721.243 L2332.4131 768.1329 L2212.7222 555.9353 L2226.2888 524.9869 Z"
                  clip-path="url(#clipPath2)" fill-rule="evenodd"
                  node-name="IGF-1" node-id="c45"/>
            <path fill="none"
                  d="M2500 452.0705 L2226.2888 524.9869 L2189.9773 515.6115 L2000.9382 180.4681 L2003.3776 170.3236 L2070.4072 91.3128 L2220.6665 0 L2369.875 0 L2500 55.7204 Z"
                  clip-path="url(#clipPath2)" fill-rule="evenodd"
                  node-name="IGF-2" node-id="c46"/>
            <path fill="none"
                  d="M2000.9382 180.4681 L1998.4755 176.102 L2003.3776 170.3236 Z"
                  clip-path="url(#clipPath2)" fill-rule="evenodd"
                  node-name="Thrombopoietin" node-id="c47"/>
            <path fill="none"
                  d="M2500 2496.5044 L2494.9412 2496.6855 L2500 2489.9497 Z"
                  clip-path="url(#clipPath2)" fill-rule="evenodd"
                  node-name="Calcitriol" node-id="c41"/>
            <path fill="none"
                  d="M2494.9412 2496.6855 L2500 2496.5044 L2500 2500 L2492.4521 2500 Z"
                  clip-path="url(#clipPath2)" fill-rule="evenodd"
                  node-name="Erythropoietin" node-id="c42"/>
            <path fill="none"
                  d="M15.8341 2297.2725 L16.9171 2297.2446 L17.5061 2298.146 L16.1557 2299.1245 Z"
                  clip-path="url(#clipPath2)" fill-rule="evenodd"
                  node-name="CRH" node-id="c37"/>
            <path fill="none"
                  d="M20.2765 2296.1387 L17.5061 2298.146 L16.9171 2297.2446 L19.424 2295.3374 Z"
                  clip-path="url(#clipPath2)" fill-rule="evenodd"
                  node-name="GHRH" node-id="c38"/>
            <path fill="none"
                  d="M19.9483 2294.1843 L21.3815 2295.3379 L20.2765 2296.1387 L19.424 2295.3374 Z"
                  clip-path="url(#clipPath2)" fill-rule="evenodd"
                  node-name="GnRH" node-id="c39"/>
            <path fill="none"
                  d="M19.9483 2294.1843 L19.424 2295.3374 L16.9171 2297.2446 L15.8341 2297.2725 L14.5428 2289.834 Z"
                  clip-path="url(#clipPath2)" fill-rule="evenodd"
                  node-name="TRH" node-id="c40"/>
            <path fill="none"
                  d="M337.852 2500 L332.4161 2500 L333.1151 2497.8354 Z"
                  clip-path="url(#clipPath2)" fill-rule="evenodd"
                  node-name="BNP" node-id="c36"/>
            <path fill="none"
                  d="M2500 799.9265 L2500 835.5215 L2483.8372 848.4005 L2439.8481 828.7614 L2439.821 821.437 L2440.375 816.5676 L2496.7695 797.0101 Z"
                  clip-path="url(#clipPath2)" fill-rule="evenodd"
                  node-name="AMH" node-id="c27"/>
            <path fill="none"
                  d="M2500 835.5215 L2500 855.6165 L2483.8372 848.4005 Z"
                  clip-path="url(#clipPath2)" fill-rule="evenodd"
                  node-name="DHT" node-id="c29"/>
            <path fill="none"
                  d="M2500 799.9265 L2496.7695 797.0101 L2500 795.8898 Z"
                  clip-path="url(#clipPath2)" fill-rule="evenodd"
                  node-name="Estradiol" node-id="c30"/>
            <path fill="none"
                  d="M2440.375 816.5676 L2439.821 821.437 L2435.3381 818.3145 Z"
                  clip-path="url(#clipPath2)" fill-rule="evenodd"
                  node-name="Estriol" node-id="c31"/>
            <path fill="none"
                  d="M2430.4858 819.9972 L2429.8389 824.2927 L2424.7068 822.0014 Z"
                  clip-path="url(#clipPath2)" fill-rule="evenodd"
                  node-name="Estrone" node-id="c32"/>
            <path fill="none"
                  d="M2439.8481 828.7614 L2429.8389 824.2927 L2430.4858 819.9972 L2435.3381 818.3145 L2439.821 821.437 Z"
                  clip-path="url(#clipPath2)" fill-rule="evenodd"
                  node-name="inhibin B" node-id="c35"/>
            <path fill="none"
                  d="M272.332 2500 L267.8305 2500 L270.4533 2494.0188 Z"
                  clip-path="url(#clipPath2)" fill-rule="evenodd"
                  node-name="CCK" node-id="c21"/>
            <path fill="none"
                  d="M290.2448 2469.9875 L328.9868 2495.1538 L327.741 2500 L272.332 2500 L270.4533 2494.0188 L270.9627 2492.4895 Z"
                  clip-path="url(#clipPath2)" fill-rule="evenodd"
                  node-name="GLP-1 total" node-id="c22"/>
            <path fill="none"
                  d="M328.9868 2495.1538 L333.1151 2497.8354 L332.4161 2500 L327.741 2500 Z"
                  clip-path="url(#clipPath2)" fill-rule="evenodd"
                  node-name="Gastrin" node-id="c23"/>
            <path fill="none"
                  d="M279.3195 2462.8906 L290.2448 2469.9875 L270.9627 2492.4895 Z"
                  clip-path="url(#clipPath2)" fill-rule="evenodd"
                  node-name="Ghrelin" node-id="c24"/>
            <path fill="none"
                  d="M0 2494.3088 L0 2312.3127 L16.1557 2299.1245 L21.3815 2295.3379 L279.3195 2462.8906 L270.9627 2492.4895 L270.4533 2494.0188 L267.8305 2500 L3.9358 2500 Z"
                  clip-path="url(#clipPath2)" fill-rule="evenodd"
                  node-name="Serotonin" node-id="c25"/>
            <path fill="none" d="M0 2494.3088 L3.9358 2500 L0 2500 Z"
                  clip-path="url(#clipPath2)" fill-rule="evenodd"
                  node-name="Vasoactive intestinal peptide (VIP)" node-id="c26"/>
            <path fill="none" d="M2214.4751 0 L2220.6665 0 L2215.387 3.2083 Z"
                  clip-path="url(#clipPath2)" fill-rule="evenodd"
                  node-name="FGF23" node-id="c19"/>
            <path fill="none"
                  d="M2214.4751 0 L2215.387 3.2083 L2070.4072 91.3128 L2049.4592 0 Z"
                  clip-path="url(#clipPath2)" fill-rule="evenodd"
                  node-name="Osteocalcin" node-id="c20"/>
            <path fill="none"
                  d="M10.0591 2286.1907 L14.5428 2289.834 L14.62 2290.2786 L9.7079 2287.6938 Z"
                  clip-path="url(#clipPath2)" fill-rule="evenodd"
                  node-name="Dopamine" node-id="c16"/>
            <path fill="none"
                  d="M10.0591 2286.1907 L9.7079 2287.6938 L0 2287.8049 L0 2286.7734 L7.8967 2284.4333 Z"
                  clip-path="url(#clipPath2)" fill-rule="evenodd"
                  node-name="Epinephrine" node-id="c17"/>
            <path fill="none"
                  d="M0 2287.8049 L9.7079 2287.6938 L14.62 2290.2786 L16.1557 2299.1245 L0 2312.3127 Z"
                  clip-path="url(#clipPath2)" fill-rule="evenodd"
                  node-name="Norepinephrin" node-id="c18"/>
            <path fill="none"
                  d="M1120.8145 2454.0061 L1131.1959 2440.1562 L1148.0221 2452.5803 L1145.5093 2464.8521 Z"
                  clip-path="url(#clipPath2)" fill-rule="evenodd"
                  node-name="17-OH Progesterone" node-id="c9"/>
            <path fill="none"
                  d="M1148.0221 2452.5803 L1160.429 2445.4661 L1169.4015 2458.533 L1147.9971 2468.2097 L1145.5093 2464.8521 Z"
                  clip-path="url(#clipPath2)" fill-rule="evenodd"
                  node-name="Androstendione" node-id="c10"/>
            <path fill="none"
                  d="M1199.5719 2500 L1151.7246 2500 L1146.988 2492.8906 L1147.9971 2468.2097 L1169.4015 2458.533 Z"
                  clip-path="url(#clipPath2)" fill-rule="evenodd"
                  node-name="DHEA" node-id="c11"/>
            <path fill="none"
                  d="M1199.5719 2500 L1169.4015 2458.533 L1160.429 2445.4661 L1144.906 2421.8657 L2354.7817 807.7896 L2424.7068 822.0014 L2500 855.6165 L2500 2259.8174 L2190.6514 2489.6804 L2155.9458 2500 Z"
                  clip-path="url(#clipPath2)" fill-rule="evenodd"
                  node-name="DHEAS" node-id="c12"/>
            <path fill="none"
                  d="M1131.1959 2440.1562 L1144.906 2421.8657 L1160.429 2445.4661 L1148.0221 2452.5803 Z"
                  clip-path="url(#clipPath2)" fill-rule="evenodd"
                  node-name="Pregnenolone" node-id="c13"/>
            <path fill="none"
                  d="M1146.988 2492.8906 L1151.7246 2500 L1142.2677 2500 Z"
                  clip-path="url(#clipPath2)" fill-rule="evenodd"
                  node-name="Progesterone" node-id="c14"/>
            <path fill="none"
                  d="M1142.2677 2500 L1086.3384 2500 L1120.8145 2454.0061 L1145.5093 2464.8521 L1147.9971 2468.2097 L1146.988 2492.8906 Z"
                  clip-path="url(#clipPath2)" fill-rule="evenodd"
                  node-name="Testosterone" node-id="c15"/>
            <path fill="none"
                  d="M2500 2363.9004 L2500 2372.4888 L2496.0869 2365.3127 Z"
                  clip-path="url(#clipPath2)" fill-rule="evenodd"
                  node-name="11-deoxycorticosterone (DOC)" node-id="c3"/>
            <path fill="none"
                  d="M2500 2466.1213 L2500 2489.9497 L2492.4521 2500 L2483.407 2500 Z"
                  clip-path="url(#clipPath2)" fill-rule="evenodd"
                  node-name="11-deoxycortisol" node-id="c4"/>
            <path fill="none"
                  d="M2500 2320.2095 L2500 2363.9004 L2496.0869 2365.3127 L2467.7681 2331.5854 Z"
                  clip-path="url(#clipPath2)" fill-rule="evenodd"
                  node-name="17-OH Pregnenolone" node-id="c5"/>
            <path fill="none"
                  d="M2500 2269.3967 L2492.8162 2265.1553 L2500 2259.8174 Z"
                  clip-path="url(#clipPath2)" fill-rule="evenodd"
                  node-name="Aldosterone" node-id="c6"/>
            <path fill="none"
                  d="M2435.3989 2307.8196 L2492.8162 2265.1553 L2500 2269.3967 L2500 2320.2095 L2467.7681 2331.5854 Z"
                  clip-path="url(#clipPath2)" fill-rule="evenodd"
                  node-name="Corticosterone" node-id="c7"/>
            <path fill="none"
                  d="M2435.3989 2307.8196 L2467.7681 2331.5854 L2496.0869 2365.3127 L2500 2372.4888 L2500 2466.1213 L2483.407 2500 L2194.3884 2500 L2190.6514 2489.6804 Z"
                  clip-path="url(#clipPath2)" fill-rule="evenodd"
                  node-name="Cortisol" node-id="c8"/>
            <path fill="none"
                  d="M1796.2344 0 L1892.4281 75.1073 L1998.4755 176.102 L2354.7817 807.7896 L1086.3384 2500 L337.852 2500 L333.1151 2497.8354 L21.3815 2295.3379 L14.5428 2289.834 L7.8967 2284.4333 L0 2277.9146 L0 4.7021 L5.4202 0 Z"
                  clip-path="url(#clipPath2)" fill-rule="evenodd"
                  node-name="Adiponectin" node-id="c1"/>
            <path fill="none" d="M1796.2344 0 L1813.5632 0 L1892.4281 75.1073 Z"
                  clip-path="url(#clipPath2)" fill-rule="evenodd"
                  node-name="Leptin" node-id="c2"/>
            <path clip-path="url(#clipPath2)" fill="none"
                  node-id="Adipose Tissue" fill-rule="evenodd"
                  d="M0 2277.9146 L0 4.7021 L5.4202 0 L1813.5632 0 L1998.4755 176.102 L2354.7817 807.7896 L1086.3384 2500 L337.852 2500 L333.1151 2497.8354 L21.3815 2295.3379 L14.5428 2289.834 L7.8967 2284.4333 Z"
                  stroke-width="2.6056" node-name="Adipose Tissue"/>
            <path clip-path="url(#clipPath2)" fill="none"
                  node-id="Adrenal Cortex" fill-rule="evenodd"
                  d="M2500 2259.8174 L2500 2489.9497 L2492.4521 2500 L2194.3884 2500 L2190.6514 2489.6804 Z"
                  stroke-width="2.6056" node-name="Adrenal Cortex"/>
            <path clip-path="url(#clipPath2)" fill="none"
                  node-id="Adrenal Cortex/Gonads" fill-rule="evenodd"
                  d="M2500 855.6165 L2500 2259.8174 L2190.6514 2489.6804 L2155.9458 2500 L1086.3384 2500 L2354.7817 807.7896 L2424.7068 822.0014 Z"
                  stroke-width="2.6056" node-name="Adrenal Cortex/Gonads"/>
            <path clip-path="url(#clipPath2)" fill="none"
                  node-id="Adrenal Medulla" fill-rule="evenodd"
                  d="M0 2286.7734 L7.8967 2284.4333 L14.5428 2289.834 L16.1557 2299.1245 L0 2312.3127 Z"
                  stroke-width="2.6056" node-name="Adrenal Medulla"/>
            <path clip-path="url(#clipPath2)" fill="none" node-id="Bone"
                  fill-rule="evenodd"
                  d="M2220.6665 0 L2070.4072 91.3128 L2049.4592 0 Z"
                  stroke-width="2.6056" node-name="Bone"/>
            <path clip-path="url(#clipPath2)" fill="none" node-id="GI Tract"
                  fill-rule="evenodd"
                  d="M0 2312.3127 L16.1557 2299.1245 L21.3815 2295.3379 L333.1151 2497.8354 L332.4161 2500 L0 2500 Z"
                  stroke-width="2.6056" node-name="GI Tract"/>
            <path clip-path="url(#clipPath2)" fill="none" node-id="Gonads"
                  fill-rule="evenodd"
                  d="M2500 855.6165 L2424.7068 822.0014 L2500 795.8898 Z"
                  stroke-width="2.6056" node-name="Gonads"/>
            <path clip-path="url(#clipPath2)" fill="none" node-id="Heart"
                  fill-rule="evenodd"
                  d="M337.852 2500 L332.4161 2500 L333.1151 2497.8354 Z"
                  stroke-width="2.6056" node-name="Heart"/>
            <path clip-path="url(#clipPath2)" fill="none" node-id="Hypothalamus"
                  fill-rule="evenodd"
                  d="M14.5428 2289.834 L21.3815 2295.3379 L16.1557 2299.1245 Z"
                  stroke-width="2.6056" node-name="Hypothalamus"/>
            <path clip-path="url(#clipPath2)" fill="none" node-id="Kidney"
                  fill-rule="evenodd"
                  d="M2500 2489.9497 L2500 2500 L2492.4521 2500 Z"
                  stroke-width="2.6056" node-name="Kidney"/>
            <path clip-path="url(#clipPath2)" fill="none" node-id="Liver"
                  fill-rule="evenodd"
                  d="M2220.6665 0 L2369.875 0 L2500 55.7204 L2500 795.8898 L2424.7068 822.0014 L2354.7817 807.7896 L1998.4755 176.102 L2070.4072 91.3128 Z"
                  stroke-width="2.6056" node-name="Liver"/>
            <path clip-path="url(#clipPath2)" fill="none" node-id="Pancreas"
                  fill-rule="evenodd"
                  d="M2194.3884 2500 L2155.9458 2500 L2190.6514 2489.6804 Z"
                  stroke-width="2.6056" node-name="Pancreas"/>
            <path clip-path="url(#clipPath2)" fill="none" node-id="Parathyroid"
                  fill-rule="evenodd" d="M5.4202 0 L0 4.7021 L0 0 Z"
                  stroke-width="2.6056" node-name="Parathyroid"/>
            <path clip-path="url(#clipPath2)" fill="none" node-id="Pineal"
                  fill-rule="evenodd"
                  d="M0 2277.9146 L7.8967 2284.4333 L0 2286.7734 Z"
                  stroke-width="2.6056" node-name="Pineal"/>
            <path clip-path="url(#clipPath2)" fill="none" node-id="Pituitary"
                  fill-rule="evenodd" d="M2500 55.7204 L2369.875 0 L2500 0 Z"
                  stroke-width="2.6056" node-name="Pituitary"/>
            <path clip-path="url(#clipPath2)" fill="none" node-id="Thyroid"
                  fill-rule="evenodd"
                  d="M2049.4592 0 L2070.4072 91.3128 L1998.4755 176.102 L1813.5632 0 Z"
                  stroke-width="2.6056" node-name="Thyroid"/>
            <path clip-path="url(#clipPath2)" fill="none" node-id="Hormone"
                  fill-rule="evenodd" d="M0 0 L2500 0 L2500 2500 L0 2500 Z"
                  stroke-width="12" node-name="Hormone"/>
        </g>
        <g font-size="348.3743px" transform="translate(6,6)"
           text-rendering="optimizeLegibility" image-rendering="optimizeSpeed"
           color-rendering="optimizeSpeed" font-family="sans-serif"
           color-interpolation="sRGB" font-weight="bold">
            <text x="140.0542" y="970.5933" clip-path="url(#clipPath2)"
                  node-id="Adipose Tissue" stroke="none"
                  node-name="Adipose Tissue" xml:space="preserve">Adipose</text><text x="139.0542"
                  y="969.5933" clip-path="url(#clipPath2)" fill="white"
                  node-id="Adipose Tissue" stroke="none"
                  node-name="Adipose Tissue" xml:space="preserve">Adipose</text><text x="297.401"
                  y="1318.9675" clip-path="url(#clipPath2)"
                  node-id="Adipose Tissue" stroke="none"
                  node-name="Adipose Tissue" xml:space="preserve">Tissue</text><text x="296.401"
                  y="1317.9675" clip-path="url(#clipPath2)" fill="white"
                  node-id="Adipose Tissue" stroke="none"
                  node-name="Adipose Tissue" xml:space="preserve">Tissue</text><text x="2346.501"
                  font-size="32.2055px" y="2430.625" clip-path="url(#clipPath2)"
                  node-id="Adrenal Cortex" stroke="none"
                  node-name="Adrenal Cortex" xml:space="preserve">Adrenal</text><text x="2345.501"
                  font-size="32.2055px" y="2429.625" clip-path="url(#clipPath2)"
                  fill="white" node-id="Adrenal Cortex" stroke="none"
                  node-name="Adrenal Cortex" xml:space="preserve">Adrenal</text><text x="2357.375"
                  font-size="32.2055px" y="2462.8306"
                  clip-path="url(#clipPath2)" node-id="Adrenal Cortex"
                  stroke="none" node-name="Adrenal Cortex" xml:space="preserve">Cortex</text><text x="2356.375"
                  font-size="32.2055px" y="2461.8306"
                  clip-path="url(#clipPath2)" fill="white"
                  node-id="Adrenal Cortex" stroke="none"
                  node-name="Adrenal Cortex" xml:space="preserve">Cortex</text><text x="1814.6857"
                  font-size="142.1656px" y="1848.6658"
                  clip-path="url(#clipPath2)" node-id="Adrenal Cortex/Gonads"
                  stroke="none" node-name="Adrenal Cortex/Gonads"
                  xml:space="preserve">Adrenal</text><text x="1813.6857"
                  font-size="142.1656px" y="1847.6658"
                  clip-path="url(#clipPath2)" fill="white"
                  node-id="Adrenal Cortex/Gonads" stroke="none"
                  node-name="Adrenal Cortex/Gonads" xml:space="preserve">Adrenal</text><text x="1836.7255"
                  font-size="142.1656px" y="1990.8314"
                  clip-path="url(#clipPath2)" node-id="Adrenal Cortex/Gonads"
                  stroke="none" node-name="Adrenal Cortex/Gonads"
                  xml:space="preserve">Cortex/</text><text x="1835.7255"
                  font-size="142.1656px" y="1989.8314"
                  clip-path="url(#clipPath2)" fill="white"
                  node-id="Adrenal Cortex/Gonads" stroke="none"
                  node-name="Adrenal Cortex/Gonads" xml:space="preserve">Cortex/</text><text x="1827.8401"
                  font-size="142.1656px" y="2132.9968"
                  clip-path="url(#clipPath2)" node-id="Adrenal Cortex/Gonads"
                  stroke="none" node-name="Adrenal Cortex/Gonads"
                  xml:space="preserve">Gonads</text><text x="1826.8401"
                  font-size="142.1656px" y="2131.9968"
                  clip-path="url(#clipPath2)" fill="white"
                  node-id="Adrenal Cortex/Gonads" stroke="none"
                  node-name="Adrenal Cortex/Gonads" xml:space="preserve">Gonads</text><text x="7.0968"
                  font-size="2.7342px" y="2297.6753" clip-path="url(#clipPath2)"
                  node-id="Adrenal Medulla" stroke="none"
                  node-name="Adrenal Medulla" xml:space="preserve">Adrenal</text><text x="6.0968"
                  font-size="2.7342px" y="2296.6753" clip-path="url(#clipPath2)"
                  fill="white" node-id="Adrenal Medulla" stroke="none"
                  node-name="Adrenal Medulla" xml:space="preserve">Adrenal</text><text x="7"
                  font-size="2.7342px" y="2300.4094" clip-path="url(#clipPath2)"
                  node-id="Adrenal Medulla" stroke="none"
                  node-name="Adrenal Medulla" xml:space="preserve">Medulla</text><text x="6"
                  font-size="2.7342px" y="2299.4094" clip-path="url(#clipPath2)"
                  fill="white" node-id="Adrenal Medulla" stroke="none"
                  node-name="Adrenal Medulla" xml:space="preserve">Medulla</text><text x="2067.9265"
                  font-size="25.0645px" y="37.7413" clip-path="url(#clipPath2)"
                  node-id="Bone" stroke="none" node-name="Bone"
                  xml:space="preserve">Bone</text><text x="2066.9265"
                  font-size="25.0645px" y="36.7413" clip-path="url(#clipPath2)"
                  fill="white" node-id="Bone" stroke="none" node-name="Bone"
                  xml:space="preserve">Bone</text><text x="15.3312"
                  font-size="35.0194px" y="2440.9744"
                  clip-path="url(#clipPath2)" node-id="GI Tract" stroke="none"
                  node-name="GI Tract" xml:space="preserve">GI Tract</text><text x="14.3312"
                  font-size="35.0194px" y="2439.9744"
                  clip-path="url(#clipPath2)" fill="white" node-id="GI Tract"
                  stroke="none" node-name="GI Tract" xml:space="preserve">GI Tract</text><text x="2448.6326"
                  font-size="11.0252px" y="828.2501" clip-path="url(#clipPath2)"
                  node-id="Gonads" stroke="none" node-name="Gonads"
                  xml:space="preserve">Gonads</text><text x="2447.6326"
                  font-size="11.0252px" y="827.2501" clip-path="url(#clipPath2)"
                  fill="white" node-id="Gonads" stroke="none" node-name="Gonads"
                  xml:space="preserve">Gonads</text><text x="2491.1238"
                  font-size="1.0002px" y="2495" clip-path="url(#clipPath2)"
                  node-id="Kidney" stroke="none" node-name="Kidney"
                  xml:space="preserve">Kidney</text><text x="2490.1238"
                  font-size="1.0002px" y="2494" clip-path="url(#clipPath2)"
                  fill="white" node-id="Kidney" stroke="none" node-name="Kidney"
                  xml:space="preserve">Kidney</text><text x="2161.8557"
                  font-size="110.8188px" y="360.5123"
                  clip-path="url(#clipPath2)" node-id="Liver" stroke="none"
                  node-name="Liver" xml:space="preserve">Liver</text><text x="2160.8557"
                  font-size="110.8188px" y="359.5123"
                  clip-path="url(#clipPath2)" fill="white" node-id="Liver"
                  stroke="none" node-name="Liver" xml:space="preserve">Liver</text><text x="2177.1182"
                  font-size="2.8936px" y="2495" clip-path="url(#clipPath2)"
                  node-id="Pancreas" stroke="none" node-name="Pancreas"
                  xml:space="preserve">Pancreas</text><text x="2176.1182"
                  font-size="2.8936px" y="2494" clip-path="url(#clipPath2)"
                  fill="white" node-id="Pancreas" stroke="none"
                  node-name="Pancreas" xml:space="preserve">Pancreas</text><text x="7"
                  font-size="1.3015px" y="2284.7202" clip-path="url(#clipPath2)"
                  node-id="Pineal" stroke="none" node-name="Pineal"
                  xml:space="preserve">Pineal</text><text x="6"
                  font-size="1.3015px" y="2283.7202" clip-path="url(#clipPath2)"
                  fill="white" node-id="Pineal" stroke="none" node-name="Pineal"
                  xml:space="preserve">Pineal</text><text x="2437.9026"
                  font-size="11.6377px" y="22.8997" clip-path="url(#clipPath2)"
                  node-id="Pituitary" stroke="none" node-name="Pituitary"
                  xml:space="preserve">Pituitary</text><text x="2436.9026"
                  font-size="11.6377px" y="21.8997" clip-path="url(#clipPath2)"
                  fill="white" node-id="Pituitary" stroke="none"
                  node-name="Pituitary" xml:space="preserve">Pituitary</text><text x="1907.2904"
                  font-size="32.2461px" y="65.3775" clip-path="url(#clipPath2)"
                  node-id="Thyroid" stroke="none" node-name="Thyroid"
                  xml:space="preserve">Thyroid</text><text x="1906.2904"
                  font-size="32.2461px" y="64.3775" clip-path="url(#clipPath2)"
                  fill="white" node-id="Thyroid" stroke="none"
                  node-name="Thyroid" xml:space="preserve">Thyroid</text>
        </g>
    </g>
</svg>