<?xml version="1.0" encoding="utf-8"?>
<!DOCTYPE svg PUBLIC '-//W3C//DTD SVG 1.0//EN' 'http://www.w3.org/TR/2001/REC-SVG-20010904/DTD/svg10.dtd'>


<svg stroke-dasharray="none" shape-rendering="auto"
     xmlns="http://www.w3.org/2000/svg" font-family="&apos;Dialog&apos;"
     width="2512" text-rendering="auto" fill-opacity="1"
     contentScriptType="text/ecmascript" color-interpolation="auto"
     color-rendering="auto" preserveAspectRatio="xMidYMid meet" font-size="12px"
     fill="black" xmlns:xlink="http://www.w3.org/1999/xlink" stroke="black"
     image-rendering="auto" stroke-miterlimit="10" zoomAndPan="magnify"
     version="1.0" stroke-linecap="square" stroke-linejoin="miter"
     contentStyleType="text/css" font-style="normal" height="2512"
     stroke-width="1" stroke-dashoffset="0" font-weight="normal"
     stroke-opacity="1">
    <!--Generated with Paver-->
    <defs id="genericDefs"/>
    <g>
        <defs id="defs1">
            <clipPath clipPathUnits="userSpaceOnUse" id="clipPath1">
                <path d="M0 0 L2512 0 L2512 2512 L0 2512 L0 0 Z"/>
            </clipPath>
            <clipPath clipPathUnits="userSpaceOnUse" id="clipPath2">
                <path d="M-6 -6 L2506 -6 L2506 2506 L-6 2506 L-6 -6 Z"/>
            </clipPath>
        </defs>
        <g fill="rgb(102,102,102)" font-size="11px" font-family="sans-serif"
           stroke="rgb(102,102,102)">
            <rect x="0" width="2512" height="2512" y="0"
                  clip-path="url(#clipPath1)" stroke="none"/>
        </g>
        <g font-size="11px" transform="translate(6,6)" fill="rgb(117,112,180)"
           text-rendering="optimizeLegibility" image-rendering="optimizeSpeed"
           color-rendering="optimizeSpeed" font-family="sans-serif"
           stroke="rgb(117,112,180)" color-interpolation="sRGB">
            <path d="M1708.2072 0 L2482.0515 0 L2500 26.5435 L2500 416.6707 L2289.4163 528.8334 L1707.746 1.16 Z"
                  clip-path="url(#clipPath2)" fill-rule="evenodd"
                  node-name="Adipose Tissue" node-id="Adipose Tissue"
                  stroke="none"/>
            <path clip-path="url(#clipPath2)" fill="rgb(180,223,105)"
                  node-id="Adrenal Cortex" fill-rule="evenodd"
                  d="M2500 2261.6809 L2500 2500 L1830.8986 2500 L1827.1709 2489.4521 L2207.4275 2115.8735 Z"
                  stroke="none" node-name="Adrenal Cortex"/>
            <path clip-path="url(#clipPath2)" fill="rgb(154,212,116)"
                  node-id="Adrenal Cortex/Gonads" fill-rule="evenodd"
                  d="M0 2425.9951 L0 727.946 L851.3453 0 L1704.7385 0 L1707.746 1.16 L2289.4163 528.8334 L2473.387 850.0515 L2500 928.4366 L2500 1522.8497 L2469.7869 1653.584 L2207.4275 2115.8735 L1827.1709 2489.4521 L1821.6356 2492.3853 L1807.0402 2500 L73.1117 2500 L72.5129 2499.4304 Z"
                  stroke="none" node-name="Adrenal Cortex/Gonads"/>
            <path clip-path="url(#clipPath2)" fill="rgb(254,219,237)"
                  node-id="Adrenal Medulla" fill-rule="evenodd"
                  d="M0 2425.9951 L72.5129 2499.4304 L72.2237 2500 L0 2500 Z"
                  stroke="none" node-name="Adrenal Medulla"/>
            <path clip-path="url(#clipPath2)" fill="rgb(102,102,102)"
                  node-id="Bone" fill-rule="evenodd"
                  d="M2500 1522.8497 L2500 1660.5291 L2469.7869 1653.584 Z"
                  stroke="none" node-name="Bone"/>
            <path clip-path="url(#clipPath2)" fill="rgb(231,172,2)"
                  node-id="GI Tract" fill-rule="evenodd"
                  d="M0 22.9881 L19.4857 0 L851.3453 0 L0 727.946 Z"
                  stroke="none" node-name="GI Tract"/>
            <path clip-path="url(#clipPath2)" fill="rgb(127,202,127)"
                  node-id="Gonads" fill-rule="evenodd"
                  d="M2500 850.2316 L2500 928.4366 L2473.387 850.0515 L2476.3159 849.3654 Z"
                  stroke="none" node-name="Gonads"/>
            <path clip-path="url(#clipPath2)" fill="rgb(142,212,200)"
                  node-id="Hypothalamus" fill-rule="evenodd"
                  d="M2500 843.0468 L2500 850.2316 L2476.3159 849.3654 Z"
                  stroke="none" node-name="Hypothalamus"/>
            <path clip-path="url(#clipPath2)" fill="rgb(241,2,127)"
                  node-id="Kidney" fill-rule="evenodd"
                  d="M1830.8986 2500 L1823.3245 2500 L1821.6356 2492.3853 L1827.1709 2489.4521 Z"
                  stroke="none" node-name="Kidney"/>
            <path clip-path="url(#clipPath2)" fill="rgb(56,108,177)"
                  node-id="Liver" fill-rule="evenodd"
                  d="M2500 1660.5291 L2500 2261.6809 L2207.4275 2115.8735 L2469.7869 1653.584 Z"
                  stroke="none" node-name="Liver"/>
            <path clip-path="url(#clipPath2)" fill="rgb(254,181,98)"
                  node-id="Pancreas" fill-rule="evenodd"
                  d="M1823.3245 2500 L1807.0402 2500 L1821.6356 2492.3853 Z"
                  stroke="none" node-name="Pancreas"/>
            <path clip-path="url(#clipPath2)" fill="rgb(129,178,212)"
                  node-id="Parathyroid" fill-rule="evenodd"
                  d="M1708.2072 0 L1707.746 1.16 L1704.7385 0 Z" stroke="none"
                  node-name="Parathyroid"/>
            <path clip-path="url(#clipPath2)" fill="rgb(255,255,180)"
                  node-id="Pineal" fill-rule="evenodd"
                  d="M19.4857 0 L0 22.9881 L0 0 Z" stroke="none"
                  node-name="Pineal"/>
            <path clip-path="url(#clipPath2)" fill="rgb(191,187,219)"
                  node-id="Pituitary" fill-rule="evenodd"
                  d="M2500 26.5435 L2482.0515 0 L2500 0 Z" stroke="none"
                  node-name="Pituitary"/>
            <path clip-path="url(#clipPath2)" fill="rgb(252,129,114)"
                  node-id="Thyroid" fill-rule="evenodd"
                  d="M2500 416.6707 L2500 843.0468 L2476.3159 849.3654 L2473.387 850.0515 L2289.4163 528.8334 Z"
                  stroke="none" node-name="Thyroid"/>
        </g>
        <g stroke-linecap="butt" font-size="11px" transform="translate(6,6)"
           text-rendering="optimizeLegibility" image-rendering="optimizeSpeed"
           color-rendering="optimizeSpeed" font-family="sans-serif"
           stroke-linejoin="bevel" color-interpolation="sRGB"
           stroke-width="2.6056">
            <path fill="none"
                  d="M1708.2072 0 L2482.0515 0 L2500 26.5435 L2500 416.6707 L2289.4163 528.8334 L1707.746 1.16 Z"
                  clip-path="url(#clipPath2)" fill-rule="evenodd"
                  node-name="Adipose Tissue" node-id="Adipose Tissue"/>
            <path fill="none"
                  d="M2500 2261.6809 L2500 2500 L1830.8986 2500 L1827.1709 2489.4521 L2207.4275 2115.8735 Z"
                  clip-path="url(#clipPath2)" fill-rule="evenodd"
                  node-name="Adrenal Cortex" node-id="Adrenal Cortex"/>
            <path fill="none"
                  d="M0 2425.9951 L0 727.946 L851.3453 0 L1704.7385 0 L1707.746 1.16 L2289.4163 528.8334 L2473.387 850.0515 L2500 928.4366 L2500 1522.8497 L2469.7869 1653.584 L2207.4275 2115.8735 L1827.1709 2489.4521 L1821.6356 2492.3853 L1807.0402 2500 L73.1117 2500 L72.5129 2499.4304 Z"
                  clip-path="url(#clipPath2)" fill-rule="evenodd"
                  node-name="Adrenal Cortex/Gonads"
                  node-id="Adrenal Cortex/Gonads"/>
            <path fill="none"
                  d="M0 2425.9951 L72.5129 2499.4304 L72.2237 2500 L0 2500 Z"
                  clip-path="url(#clipPath2)" fill-rule="evenodd"
                  node-name="Adrenal Medulla" node-id="Adrenal Medulla"/>
            <path fill="none"
                  d="M2500 1522.8497 L2500 1660.5291 L2469.7869 1653.584 Z"
                  clip-path="url(#clipPath2)" fill-rule="evenodd"
                  node-name="Bone" node-id="Bone"/>
            <path fill="none" d="M0 22.9881 L19.4857 0 L851.3453 0 L0 727.946 Z"
                  clip-path="url(#clipPath2)" fill-rule="evenodd"
                  node-name="GI Tract" node-id="GI Tract"/>
            <path fill="none"
                  d="M2500 850.2316 L2500 928.4366 L2473.387 850.0515 L2476.3159 849.3654 Z"
                  clip-path="url(#clipPath2)" fill-rule="evenodd"
                  node-name="Gonads" node-id="Gonads"/>
            <path fill="none"
                  d="M73.1117 2500 L72.2237 2500 L72.5129 2499.4304 Z"
                  clip-path="url(#clipPath2)" fill-rule="evenodd"
                  node-name="Heart" node-id="Heart"/>
            <path fill="none"
                  d="M2500 843.0468 L2500 850.2316 L2476.3159 849.3654 Z"
                  clip-path="url(#clipPath2)" fill-rule="evenodd"
                  node-name="Hypothalamus" node-id="Hypothalamus"/>
            <path fill="none"
                  d="M1830.8986 2500 L1823.3245 2500 L1821.6356 2492.3853 L1827.1709 2489.4521 Z"
                  clip-path="url(#clipPath2)" fill-rule="evenodd"
                  node-name="Kidney" node-id="Kidney"/>
            <path fill="none"
                  d="M2500 1660.5291 L2500 2261.6809 L2207.4275 2115.8735 L2469.7869 1653.584 Z"
                  clip-path="url(#clipPath2)" fill-rule="evenodd"
                  node-name="Liver" node-id="Liver"/>
            <path fill="none"
                  d="M1823.3245 2500 L1807.0402 2500 L1821.6356 2492.3853 Z"
                  clip-path="url(#clipPath2)" fill-rule="evenodd"
                  node-name="Pancreas" node-id="Pancreas"/>
            <path fill="none" d="M1708.2072 0 L1707.746 1.16 L1704.7385 0 Z"
                  clip-path="url(#clipPath2)" fill-rule="evenodd"
                  node-name="Parathyroid" node-id="Parathyroid"/>
            <path fill="none" d="M19.4857 0 L0 22.9881 L0 0 Z"
                  clip-path="url(#clipPath2)" fill-rule="evenodd"
                  node-name="Pineal" node-id="Pineal"/>
            <path fill="none" d="M2500 26.5435 L2482.0515 0 L2500 0 Z"
                  clip-path="url(#clipPath2)" fill-rule="evenodd"
                  node-name="Pituitary" node-id="Pituitary"/>
            <path fill="none"
                  d="M2500 416.6707 L2500 843.0468 L2476.3159 849.3654 L2473.387 850.0515 L2289.4163 528.8334 Z"
                  clip-path="url(#clipPath2)" fill-rule="evenodd"
                  node-name="Thyroid" node-id="Thyroid"/>
            <path clip-path="url(#clipPath2)" fill="none" node-id="Hormone"
                  fill-rule="evenodd" d="M0 0 L2500 0 L2500 2500 L0 2500 Z"
                  stroke-width="12" node-name="Hormone"/>
        </g>
        <g font-size="89.0596px" transform="translate(6,6)"
           text-rendering="optimizeLegibility" image-rendering="optimizeSpeed"
           color-rendering="optimizeSpeed" font-family="sans-serif"
           color-interpolation="sRGB" font-weight="bold">
            <text x="2063.75" y="167.0216" clip-path="url(#clipPath2)"
                  node-id="Adipose Tissue" stroke="none"
                  node-name="Adipose Tissue" xml:space="preserve">Adipose</text><text x="2062.75"
                  y="166.0216" clip-path="url(#clipPath2)" fill="white"
                  node-id="Adipose Tissue" stroke="none"
                  node-name="Adipose Tissue" xml:space="preserve">Adipose</text><text x="2103.9746"
                  y="256.0811" clip-path="url(#clipPath2)"
                  node-id="Adipose Tissue" stroke="none"
                  node-name="Adipose Tissue" xml:space="preserve">Tissue</text><text x="2102.9746"
                  y="255.0811" clip-path="url(#clipPath2)" fill="white"
                  node-id="Adipose Tissue" stroke="none"
                  node-name="Adipose Tissue" xml:space="preserve">Tissue</text><text x="2087.2988"
                  font-size="81.6276px" y="2389.0737"
                  clip-path="url(#clipPath2)" node-id="Adrenal Cortex"
                  stroke="none" node-name="Adrenal Cortex" xml:space="preserve">Adrenal</text><text x="2086.2988"
                  font-size="81.6276px" y="2388.0737"
                  clip-path="url(#clipPath2)" fill="white"
                  node-id="Adrenal Cortex" stroke="none"
                  node-name="Adrenal Cortex" xml:space="preserve">Adrenal</text><text x="2114.8599"
                  font-size="81.6276px" y="2470.7012"
                  clip-path="url(#clipPath2)" node-id="Adrenal Cortex"
                  stroke="none" node-name="Adrenal Cortex" xml:space="preserve">Cortex</text><text x="2113.8599"
                  font-size="81.6276px" y="2469.7012"
                  clip-path="url(#clipPath2)" fill="white"
                  node-id="Adrenal Cortex" stroke="none"
                  node-name="Adrenal Cortex" xml:space="preserve">Cortex</text><text x="355.3019"
                  font-size="378.244px" y="1184.62" clip-path="url(#clipPath2)"
                  node-id="Adrenal Cortex/Gonads" stroke="none"
                  node-name="Adrenal Cortex/Gonads" xml:space="preserve">Adrenal</text><text x="354.3019"
                  font-size="378.244px" y="1183.62" clip-path="url(#clipPath2)"
                  fill="white" node-id="Adrenal Cortex/Gonads" stroke="none"
                  node-name="Adrenal Cortex/Gonads" xml:space="preserve">Adrenal</text><text x="413.9408"
                  font-size="378.244px" y="1562.8639"
                  clip-path="url(#clipPath2)" node-id="Adrenal Cortex/Gonads"
                  stroke="none" node-name="Adrenal Cortex/Gonads"
                  xml:space="preserve">Cortex/</text><text x="412.9408"
                  font-size="378.244px" y="1561.8639"
                  clip-path="url(#clipPath2)" fill="white"
                  node-id="Adrenal Cortex/Gonads" stroke="none"
                  node-name="Adrenal Cortex/Gonads" xml:space="preserve">Cortex/</text><text x="390.3005"
                  font-size="378.244px" y="1941.1079"
                  clip-path="url(#clipPath2)" node-id="Adrenal Cortex/Gonads"
                  stroke="none" node-name="Adrenal Cortex/Gonads"
                  xml:space="preserve">Gonads</text><text x="389.3005"
                  font-size="378.244px" y="1940.1079"
                  clip-path="url(#clipPath2)" fill="white"
                  node-id="Adrenal Cortex/Gonads" stroke="none"
                  node-name="Adrenal Cortex/Gonads" xml:space="preserve">Gonads</text><text x="7.2689"
                  font-size="7.5968px" y="2478.0667" clip-path="url(#clipPath2)"
                  node-id="Adrenal Medulla" stroke="none"
                  node-name="Adrenal Medulla" xml:space="preserve">Adrenal</text><text x="6.2689"
                  font-size="7.5968px" y="2477.0667" clip-path="url(#clipPath2)"
                  fill="white" node-id="Adrenal Medulla" stroke="none"
                  node-name="Adrenal Medulla" xml:space="preserve">Adrenal</text><text x="7"
                  font-size="7.5968px" y="2485.6636" clip-path="url(#clipPath2)"
                  node-id="Adrenal Medulla" stroke="none"
                  node-name="Adrenal Medulla" xml:space="preserve">Medulla</text><text x="6"
                  font-size="7.5968px" y="2484.6636" clip-path="url(#clipPath2)"
                  fill="white" node-id="Adrenal Medulla" stroke="none"
                  node-name="Adrenal Medulla" xml:space="preserve">Medulla</text><text x="2478.0869"
                  font-size="5.9567px" y="1618.3271" clip-path="url(#clipPath2)"
                  node-id="Bone" stroke="none" node-name="Bone"
                  xml:space="preserve">Bone</text><text x="2477.0869"
                  font-size="5.9567px" y="1617.3271" clip-path="url(#clipPath2)"
                  fill="white" node-id="Bone" stroke="none" node-name="Bone"
                  xml:space="preserve">Bone</text><text x="145.0698"
                  font-size="122.6617px" y="191.796" clip-path="url(#clipPath2)"
                  node-id="GI Tract" stroke="none" node-name="GI Tract"
                  xml:space="preserve">GI</text><text x="144.0698"
                  font-size="122.6617px" y="190.796" clip-path="url(#clipPath2)"
                  fill="white" node-id="GI Tract" stroke="none"
                  node-name="GI Tract" xml:space="preserve">GI</text><text x="39.0885"
                  font-size="122.6617px" y="314.4577"
                  clip-path="url(#clipPath2)" node-id="GI Tract" stroke="none"
                  node-name="GI Tract" xml:space="preserve">Tract</text><text x="38.0885"
                  font-size="122.6617px" y="313.4577"
                  clip-path="url(#clipPath2)" fill="white" node-id="GI Tract"
                  stroke="none" node-name="GI Tract" xml:space="preserve">Tract</text><text x="2480.6125"
                  font-size="3.421px" y="877.0238" clip-path="url(#clipPath2)"
                  node-id="Gonads" stroke="none" node-name="Gonads"
                  xml:space="preserve">Gonads</text><text x="2479.6125"
                  font-size="3.421px" y="876.0238" clip-path="url(#clipPath2)"
                  fill="white" node-id="Gonads" stroke="none" node-name="Gonads"
                  xml:space="preserve">Gonads</text><text x="2483.5803"
                  font-size="1.4058px" y="849.1255" clip-path="url(#clipPath2)"
                  node-id="Hypothalamus" stroke="none" node-name="Hypothalamus"
                  xml:space="preserve">Hypothalamus</text><text x="2482.5803"
                  font-size="1.4058px" y="848.1255" clip-path="url(#clipPath2)"
                  fill="white" node-id="Hypothalamus" stroke="none"
                  node-name="Hypothalamus" xml:space="preserve">Hypothalamus</text><text x="1824.1635"
                  font-size="1.4107px" y="2495" clip-path="url(#clipPath2)"
                  node-id="Kidney" stroke="none" node-name="Kidney"
                  xml:space="preserve">Kidney</text><text x="1823.1635"
                  font-size="1.4107px" y="2494" clip-path="url(#clipPath2)"
                  fill="white" node-id="Kidney" stroke="none" node-name="Kidney"
                  xml:space="preserve">Kidney</text><text x="2312.6685"
                  font-size="61.2939px" y="2030.0846"
                  clip-path="url(#clipPath2)" node-id="Liver" stroke="none"
                  node-name="Liver" xml:space="preserve">Liver</text><text x="2311.6685"
                  font-size="61.2939px" y="2029.0846"
                  clip-path="url(#clipPath2)" fill="white" node-id="Liver"
                  stroke="none" node-name="Liver" xml:space="preserve">Liver</text><text x="1815.8807"
                  font-size="1.358px" y="2495" clip-path="url(#clipPath2)"
                  node-id="Pancreas" stroke="none" node-name="Pancreas"
                  xml:space="preserve">Pancreas</text><text x="1814.8807"
                  font-size="1.358px" y="2494" clip-path="url(#clipPath2)"
                  fill="white" node-id="Pancreas" stroke="none"
                  node-name="Pancreas" xml:space="preserve">Pancreas</text><text x="7"
                  font-size="2.7893px" y="9.4037" clip-path="url(#clipPath2)"
                  node-id="Pineal" stroke="none" node-name="Pineal"
                  xml:space="preserve">Pineal</text><text x="6"
                  font-size="2.7893px" y="8.4037" clip-path="url(#clipPath2)"
                  fill="white" node-id="Pineal" stroke="none" node-name="Pineal"
                  xml:space="preserve">Pineal</text><text x="2485.5503"
                  font-size="1.926px" y="10.2896" clip-path="url(#clipPath2)"
                  node-id="Pituitary" stroke="none" node-name="Pituitary"
                  xml:space="preserve">Pituitary</text><text x="2484.5503"
                  font-size="1.926px" y="9.2896" clip-path="url(#clipPath2)"
                  fill="white" node-id="Pituitary" stroke="none"
                  node-name="Pituitary" xml:space="preserve">Pituitary</text><text x="2357.511"
                  font-size="30.4822px" y="613.0187" clip-path="url(#clipPath2)"
                  node-id="Thyroid" stroke="none" node-name="Thyroid"
                  xml:space="preserve">Thyroid</text><text x="2356.511"
                  font-size="30.4822px" y="612.0187" clip-path="url(#clipPath2)"
                  fill="white" node-id="Thyroid" stroke="none"
                  node-name="Thyroid" xml:space="preserve">Thyroid</text>
        </g>
    </g>
</svg>