<?xml version="1.0" encoding="utf-8"?>
<!DOCTYPE svg PUBLIC '-//W3C//DTD SVG 1.0//EN' 'http://www.w3.org/TR/2001/REC-SVG-20010904/DTD/svg10.dtd'>


<svg stroke-dasharray="none" shape-rendering="auto"
     xmlns="http://www.w3.org/2000/svg" font-family="&apos;Dialog&apos;"
     width="2512" text-rendering="auto" fill-opacity="1"
     contentScriptType="text/ecmascript" color-interpolation="auto"
     color-rendering="auto" preserveAspectRatio="xMidYMid meet" font-size="12px"
     fill="black" xmlns:xlink="http://www.w3.org/1999/xlink" stroke="black"
     image-rendering="auto" stroke-miterlimit="10" zoomAndPan="magnify"
     version="1.0" stroke-linecap="square" stroke-linejoin="miter"
     contentStyleType="text/css" font-style="normal" height="2512"
     stroke-width="1" stroke-dashoffset="0" font-weight="normal"
     stroke-opacity="1">
    <!--Generated with Paver-->
    <defs id="genericDefs"/>
    <g>
        <defs id="defs1">
            <clipPath clipPathUnits="userSpaceOnUse" id="clipPath1">
                <path d="M0 0 L2512 0 L2512 2512 L0 2512 L0 0 Z"/>
            </clipPath>
            <clipPath clipPathUnits="userSpaceOnUse" id="clipPath2">
                <path d="M-6 -6 L2506 -6 L2506 2506 L-6 2506 L-6 -6 Z"/>
            </clipPath>
        </defs>
        <g fill="rgb(102,102,102)" font-size="11px" font-family="sans-serif"
           stroke="rgb(102,102,102)">
            <rect x="0" width="2512" height="2512" y="0"
                  clip-path="url(#clipPath1)" stroke="none"/>
        </g>
        <g font-size="11px" transform="translate(6,6)" fill="rgb(117,112,180)"
           text-rendering="optimizeLegibility" image-rendering="optimizeSpeed"
           color-rendering="optimizeSpeed" font-family="sans-serif"
           stroke="rgb(117,112,180)" color-interpolation="sRGB">
            <path d="M1721.2205 0 L2482.0515 0 L2500 26.5435 L2500 416.6707 L2289.4163 528.8334 L1717.3085 9.8347 Z"
                  clip-path="url(#clipPath2)" fill-rule="evenodd"
                  node-name="Adiponectin" node-id="c1" stroke="none"/>
            <path clip-path="url(#clipPath2)" fill="rgb(122,117,185)"
                  node-id="c2" fill-rule="evenodd"
                  d="M1721.2205 0 L1717.3085 9.8347 L1707.746 1.16 L1708.2072 0 Z"
                  stroke="none" node-name="Leptin"/>
            <path clip-path="url(#clipPath2)" fill="rgb(180,223,105)"
                  node-id="c3" fill-rule="evenodd"
                  d="M2488.9575 2381.5127 L2492.1335 2391.5847 L2475.8853 2389.5938 Z"
                  stroke="none" node-name="11-deoxycorticosterone (DOC)"/>
            <path clip-path="url(#clipPath2)" fill="rgb(185,228,110)"
                  node-id="c4" fill-rule="evenodd"
                  d="M2500 2486.543 L2500 2500 L2435.4045 2500 L2447.7593 2474.1936 Z"
                  stroke="none" node-name="11-deoxycortisol"/>
            <path clip-path="url(#clipPath2)" fill="rgb(190,233,115)"
                  node-id="c5" fill-rule="evenodd"
                  d="M2500 2486.543 L2447.7593 2474.1936 L2471.3228 2391.4944 L2475.8853 2389.5938 L2492.1335 2391.5847 L2500 2393.9287 Z"
                  stroke="none" node-name="17-OH Pregnenolone"/>
            <path clip-path="url(#clipPath2)" fill="rgb(195,238,120)"
                  node-id="c6" fill-rule="evenodd"
                  d="M2500 2373.7087 L2500 2393.9287 L2492.1335 2391.5847 L2488.9575 2381.5127 Z"
                  stroke="none" node-name="Aldosterone"/>
            <path clip-path="url(#clipPath2)" fill="rgb(200,243,125)"
                  node-id="c7" fill-rule="evenodd"
                  d="M2369.8049 2196.7964 L2500 2261.6809 L2500 2373.7087 L2488.9575 2381.5127 L2475.8853 2389.5938 L2471.3228 2391.4944 Z"
                  stroke="none" node-name="Corticosterone"/>
            <path clip-path="url(#clipPath2)" fill="rgb(205,248,130)"
                  node-id="c8" fill-rule="evenodd"
                  d="M2369.8049 2196.7964 L2471.3228 2391.4944 L2447.7593 2474.1936 L2435.4045 2500 L1830.8986 2500 L1827.1709 2489.4521 L2207.4275 2115.8735 Z"
                  stroke="none" node-name="Cortisol"/>
            <path clip-path="url(#clipPath2)" fill="rgb(154,212,116)"
                  node-id="c9" fill-rule="evenodd"
                  d="M66.4857 2493.3267 L121.946 2447.4895 L122.0355 2500 L73.1117 2500 L72.5129 2499.4304 Z"
                  stroke="none" node-name="17-OH Progesterone"/>
            <path clip-path="url(#clipPath2)" fill="rgb(159,217,121)"
                  node-id="c10" fill-rule="evenodd"
                  d="M181.7526 2500 L122.0355 2500 L121.946 2447.4895 L122.6336 2446.4863 Z"
                  stroke="none" node-name="Androstendione"/>
            <path clip-path="url(#clipPath2)" fill="rgb(164,222,126)"
                  node-id="c11" fill-rule="evenodd"
                  d="M1952.9716 2365.8608 L1827.1709 2489.4521 L1821.6356 2492.3853 L1807.0402 2500 L1704.5505 2500 Z"
                  stroke="none" node-name="DHEA"/>
            <path clip-path="url(#clipPath2)" fill="rgb(169,227,131)"
                  node-id="c12" fill-rule="evenodd"
                  d="M0 799.22 L58.6389 677.8066 L851.3453 0 L1704.7385 0 L1707.746 1.16 L2289.4163 528.8334 L2473.387 850.0515 L2500 928.4366 L2500 1522.8497 L2469.7869 1653.584 L2207.4275 2115.8735 L1952.9716 2365.8608 L1704.5505 2500 L181.7526 2500 L122.6336 2446.4863 L14.0318 2333.4949 L0 2317.0273 Z"
                  stroke="none" node-name="DHEAS"/>
            <path clip-path="url(#clipPath2)" fill="rgb(174,232,136)"
                  node-id="c13" fill-rule="evenodd"
                  d="M58.6389 677.8066 L0 799.22 L0 727.946 Z" stroke="none"
                  node-name="Pregnenolone"/>
            <path clip-path="url(#clipPath2)" fill="rgb(179,237,141)"
                  node-id="c14" fill-rule="evenodd"
                  d="M0 2317.0273 L14.0318 2333.4949 L0 2340.603 Z"
                  stroke="none" node-name="Progesterone"/>
            <path clip-path="url(#clipPath2)" fill="rgb(184,242,146)"
                  node-id="c15" fill-rule="evenodd"
                  d="M0 2340.603 L14.0318 2333.4949 L122.6336 2446.4863 L121.946 2447.4895 L66.4857 2493.3267 L0 2425.9951 Z"
                  stroke="none" node-name="Testosterone"/>
            <path clip-path="url(#clipPath2)" fill="rgb(254,219,237)"
                  node-id="c16" fill-rule="evenodd"
                  d="M64.6514 2491.469 L72.5129 2499.4304 L72.2237 2500 L61.0637 2500 Z"
                  stroke="none" node-name="Dopamine"/>
            <path clip-path="url(#clipPath2)" fill="rgb(255,224,242)"
                  node-id="c17" fill-rule="evenodd"
                  d="M15.638 2441.832 L0 2449.0039 L0 2425.9951 Z" stroke="none"
                  node-name="Epinephrine"/>
            <path clip-path="url(#clipPath2)" fill="rgb(255,229,247)"
                  node-id="c18" fill-rule="evenodd"
                  d="M0 2449.0039 L15.638 2441.832 L64.6514 2491.469 L61.0637 2500 L0 2500 Z"
                  stroke="none" node-name="Norepinephrin"/>
            <path clip-path="url(#clipPath2)" fill="rgb(102,102,102)"
                  node-id="c19" fill-rule="evenodd"
                  d="M2500 1525.001 L2499.5029 1525.001 L2500 1522.8497 Z"
                  stroke="none" node-name="FGF23"/>
            <path clip-path="url(#clipPath2)" fill="rgb(107,107,107)"
                  node-id="c20" fill-rule="evenodd"
                  d="M2499.5029 1525.001 L2500 1525.001 L2500 1660.5291 L2469.7869 1653.584 Z"
                  stroke="none" node-name="Osteocalcin"/>
            <path clip-path="url(#clipPath2)" fill="rgb(231,172,2)"
                  node-id="c21" fill-rule="evenodd"
                  d="M0 721.2231 L1.6791 722.2064 L0 722.9534 Z" stroke="none"
                  node-name="CCK"/>
            <path clip-path="url(#clipPath2)" fill="rgb(236,177,7)"
                  node-id="c22" fill-rule="evenodd"
                  d="M819.9431 0 L846.7664 0 L848.0079 2.8537 L819.9474 26.8469 L814.8513 14.9191 Z"
                  stroke="none" node-name="GLP-1 total"/>
            <path clip-path="url(#clipPath2)" fill="rgb(241,182,12)"
                  node-id="c23" fill-rule="evenodd"
                  d="M848.0079 2.8537 L846.7664 0 L851.3453 0 Z" stroke="none"
                  node-name="Gastrin"/>
            <path clip-path="url(#clipPath2)" fill="rgb(246,187,17)"
                  node-id="c24" fill-rule="evenodd"
                  d="M808.1744 0 L819.9431 0 L814.8513 14.9191 Z" stroke="none"
                  node-name="Ghrelin"/>
            <path clip-path="url(#clipPath2)" fill="rgb(251,192,22)"
                  node-id="c25" fill-rule="evenodd"
                  d="M0 721.2231 L0 22.9881 L19.4857 0 L808.1744 0 L814.8513 14.9191 L819.9474 26.8469 L4.6774 723.9466 L1.6791 722.2064 Z"
                  stroke="none" node-name="Serotonin"/>
            <path clip-path="url(#clipPath2)" fill="rgb(255,197,27)"
                  node-id="c26" fill-rule="evenodd"
                  d="M0 722.9534 L1.6791 722.2064 L4.6774 723.9466 L0 727.946 Z"
                  stroke="none" node-name="Vasoactive intestinal peptide (VIP)"/>
            <path clip-path="url(#clipPath2)" fill="rgb(127,202,127)"
                  node-id="c27" fill-rule="evenodd"
                  d="M2496.6448 850.1088 L2500 850.2316 L2500 856.6229 L2496.0505 855.7053 Z"
                  stroke="none" node-name="AMH"/>
            <path clip-path="url(#clipPath2)" fill="rgb(137,212,137)"
                  node-id="c29" fill-rule="evenodd"
                  d="M2500 856.6229 L2500 923.7735 L2498.501 924.0212 L2476.8201 860.1636 L2481.3682 857.6724 L2489.8181 855.4707 L2496.0505 855.7053 Z"
                  stroke="none" node-name="DHT"/>
            <path clip-path="url(#clipPath2)" fill="rgb(142,217,142)"
                  node-id="c30" fill-rule="evenodd"
                  d="M2489.54 849.849 L2496.6448 850.1088 L2496.0505 855.7053 L2489.8181 855.4707 Z"
                  stroke="none" node-name="Estradiol"/>
            <path clip-path="url(#clipPath2)" fill="rgb(147,222,147)"
                  node-id="c31" fill-rule="evenodd"
                  d="M2480.3501 849.5129 L2481.3682 857.6724 L2476.8201 860.1636 L2473.387 850.0515 L2476.3159 849.3654 Z"
                  stroke="none" node-name="Estriol"/>
            <path clip-path="url(#clipPath2)" fill="rgb(152,227,152)"
                  node-id="c32" fill-rule="evenodd"
                  d="M2480.3501 849.5129 L2489.54 849.849 L2489.8181 855.4707 L2481.3682 857.6724 Z"
                  stroke="none" node-name="Estrone"/>
            <path clip-path="url(#clipPath2)" fill="rgb(167,242,167)"
                  node-id="c35" fill-rule="evenodd"
                  d="M2500 923.7735 L2500 928.4366 L2498.501 924.0212 Z"
                  stroke="none" node-name="inhibin B"/>
            <path clip-path="url(#clipPath2)" fill="rgb(192,91,23)"
                  node-id="c36" fill-rule="evenodd"
                  d="M73.1117 2500 L72.2237 2500 L72.5129 2499.4304 Z"
                  stroke="none" node-name="BNP"/>
            <path clip-path="url(#clipPath2)" fill="rgb(142,212,200)"
                  node-id="c37" fill-rule="evenodd"
                  d="M2478.2739 848.843 L2478.3413 849.4395 L2476.3159 849.3654 Z"
                  stroke="none" node-name="CRH"/>
            <path clip-path="url(#clipPath2)" fill="rgb(147,217,205)"
                  node-id="c38" fill-rule="evenodd"
                  d="M2500 847.0275 L2500 850.2316 L2499.3469 850.2076 Z"
                  stroke="none" node-name="GHRH"/>
            <path clip-path="url(#clipPath2)" fill="rgb(152,222,210)"
                  node-id="c39" fill-rule="evenodd"
                  d="M2500 846.3577 L2498.6833 843.3981 L2500 843.0468 Z"
                  stroke="none" node-name="GnRH"/>
            <path clip-path="url(#clipPath2)" fill="rgb(157,227,215)"
                  node-id="c40" fill-rule="evenodd"
                  d="M2478.2739 848.843 L2498.6833 843.3981 L2500 846.3577 L2500 847.0275 L2499.3469 850.2076 L2478.3413 849.4395 Z"
                  stroke="none" node-name="TRH"/>
            <path clip-path="url(#clipPath2)" fill="rgb(241,2,127)"
                  node-id="c41" fill-rule="evenodd"
                  d="M1830.4623 2498.7656 L1828.9661 2500 L1823.3245 2500 L1821.6356 2492.3853 L1827.1709 2489.4521 Z"
                  stroke="none" node-name="Calcitriol"/>
            <path clip-path="url(#clipPath2)" fill="rgb(246,7,132)"
                  node-id="c42" fill-rule="evenodd"
                  d="M1830.4623 2498.7656 L1830.8986 2500 L1828.9661 2500 Z"
                  stroke="none" node-name="Erythropoietin"/>
            <path clip-path="url(#clipPath2)" fill="rgb(56,108,177)"
                  node-id="c43" fill-rule="evenodd"
                  d="M2232.2849 2128.2617 L2207.4275 2115.8735 L2240.4187 2057.7412 Z"
                  stroke="none" node-name="Angiotensin 2"/>
            <path clip-path="url(#clipPath2)" fill="rgb(61,113,182)"
                  node-id="c44" fill-rule="evenodd"
                  d="M2500 2063.8809 L2500 2261.6809 L2232.2849 2128.2617 L2240.4187 2057.7412 L2264.0989 2016.0157 L2265.2554 2014.7142 Z"
                  stroke="none" node-name="Calcidiol"/>
            <path clip-path="url(#clipPath2)" fill="rgb(66,118,187)"
                  node-id="c45" fill-rule="evenodd"
                  d="M2500 2063.8809 L2265.2554 2014.7142 L2265.1633 2014.1403 L2292.0076 1966.8394 L2500 2001.8445 Z"
                  stroke="none" node-name="IGF-1"/>
            <path clip-path="url(#clipPath2)" fill="rgb(71,123,192)"
                  node-id="c46" fill-rule="evenodd"
                  d="M2500 2001.8445 L2292.0076 1966.8394 L2469.7869 1653.584 L2500 1660.5291 Z"
                  stroke="none" node-name="IGF-2"/>
            <path clip-path="url(#clipPath2)" fill="rgb(76,128,197)"
                  node-id="c47" fill-rule="evenodd"
                  d="M2264.0989 2016.0157 L2265.1633 2014.1403 L2265.2554 2014.7142 Z"
                  stroke="none" node-name="Thrombopoietin"/>
            <path clip-path="url(#clipPath2)" fill="rgb(254,181,98)"
                  node-id="c48" fill-rule="evenodd"
                  d="M1813.5807 2500 L1811.3206 2500 L1810.9001 2497.9863 L1812.4677 2497.1685 Z"
                  stroke="none" node-name="Glucagon"/>
            <path clip-path="url(#clipPath2)" fill="rgb(255,186,103)"
                  node-id="c49" fill-rule="evenodd"
                  d="M1816.3964 2500 L1815.9937 2495.3289 L1821.6356 2492.3853 L1823.3245 2500 Z"
                  stroke="none" node-name="Insulin"/>
            <path clip-path="url(#clipPath2)" fill="rgb(255,191,108)"
                  node-id="c50" fill-rule="evenodd"
                  d="M1815.9937 2495.3289 L1816.3964 2500 L1813.5807 2500 L1812.4677 2497.1685 Z"
                  stroke="none" node-name="Pancreatic polypeptide"/>
            <path clip-path="url(#clipPath2)" fill="rgb(255,196,113)"
                  node-id="c51" fill-rule="evenodd"
                  d="M1810.9001 2497.9863 L1811.3206 2500 L1807.0402 2500 Z"
                  stroke="none" node-name="Somatostatin"/>
            <path clip-path="url(#clipPath2)" fill="rgb(129,178,212)"
                  node-id="c52" fill-rule="evenodd"
                  d="M1708.2072 0 L1707.746 1.16 L1704.7385 0 Z" stroke="none"
                  node-name="PTH"/>
            <path clip-path="url(#clipPath2)" fill="rgb(255,255,180)"
                  node-id="c53" fill-rule="evenodd"
                  d="M19.4857 0 L0 22.9881 L0 0 Z" stroke="none"
                  node-name="Melatonin"/>
            <path clip-path="url(#clipPath2)" fill="rgb(191,187,219)"
                  node-id="c54" fill-rule="evenodd"
                  d="M2500 21.2961 L2498.74 21.1407 L2498.0537 19.326 L2500 18.4397 Z"
                  stroke="none" node-name="ACTH"/>
            <path clip-path="url(#clipPath2)" fill="rgb(196,192,224)"
                  node-id="c55" fill-rule="evenodd"
                  d="M2500 24.2903 L2500 26.5435 L2498.7253 24.6585 Z"
                  stroke="none" node-name="ADH"/>
            <path clip-path="url(#clipPath2)" fill="rgb(201,197,229)"
                  node-id="c56" fill-rule="evenodd"
                  d="M2497.1606 22.3444 L2495.572 19.9952 L2498.0537 19.326 L2498.74 21.1407 Z"
                  stroke="none" node-name="FSH"/>
            <path clip-path="url(#clipPath2)" fill="rgb(206,202,234)"
                  node-id="c57" fill-rule="evenodd"
                  d="M2500 3.5545 L2494.1616 0 L2500 0 Z" stroke="none"
                  node-name="GH"/>
            <path clip-path="url(#clipPath2)" fill="rgb(211,207,239)"
                  node-id="c58" fill-rule="evenodd"
                  d="M2488.3582 0 L2484.9966 4.3555 L2482.0515 0 Z"
                  stroke="none" node-name="LH"/>
            <path clip-path="url(#clipPath2)" fill="rgb(216,212,244)"
                  node-id="c59" fill-rule="evenodd"
                  d="M2500 3.5545 L2500 18.4397 L2498.0537 19.326 L2495.572 19.9952 L2484.9966 4.3555 L2488.3582 0 L2494.1616 0 Z"
                  stroke="none" node-name="Prolactin"/>
            <path clip-path="url(#clipPath2)" fill="rgb(221,217,249)"
                  node-id="c60" fill-rule="evenodd"
                  d="M2500 21.2961 L2500 24.2903 L2498.7253 24.6585 L2497.1606 22.3444 L2498.74 21.1407 Z"
                  stroke="none" node-name="TSH"/>
            <path clip-path="url(#clipPath2)" fill="rgb(252,129,114)"
                  node-id="c61" fill-rule="evenodd"
                  d="M2500 418.3347 L2498.6921 417.3674 L2500 416.6707 Z"
                  stroke="none" node-name="Calcitonin"/>
            <path clip-path="url(#clipPath2)" fill="rgb(255,134,119)"
                  node-id="c62" fill-rule="evenodd"
                  d="M2498.6921 417.3674 L2500 418.3347 L2500 431.324 L2482.8462 425.8074 Z"
                  stroke="none" node-name="reverse T3"/>
            <path clip-path="url(#clipPath2)" fill="rgb(255,139,124)"
                  node-id="c63" fill-rule="evenodd"
                  d="M2351.5186 495.756 L2303.2722 553.0263 L2289.4163 528.8334 Z"
                  stroke="none" node-name="total T3"/>
            <path clip-path="url(#clipPath2)" fill="rgb(255,144,129)"
                  node-id="c64" fill-rule="evenodd"
                  d="M2351.5186 495.756 L2482.8462 425.8074 L2500 431.324 L2500 843.0468 L2476.3159 849.3654 L2473.387 850.0515 L2303.2722 553.0263 Z"
                  stroke="none" node-name="total T4"/>
        </g>
        <g stroke-linecap="butt" font-size="11px" transform="translate(6,6)"
           text-rendering="optimizeLegibility" image-rendering="optimizeSpeed"
           color-rendering="optimizeSpeed" font-family="sans-serif"
           stroke-linejoin="bevel" color-interpolation="sRGB" stroke-width="0">
            <path fill="none"
                  d="M2500 418.3347 L2498.6921 417.3674 L2500 416.6707 Z"
                  clip-path="url(#clipPath2)" fill-rule="evenodd"
                  node-name="Calcitonin" node-id="c61"/>
            <path fill="none"
                  d="M2498.6921 417.3674 L2500 418.3347 L2500 431.324 L2482.8462 425.8074 Z"
                  clip-path="url(#clipPath2)" fill-rule="evenodd"
                  node-name="reverse T3" node-id="c62"/>
            <path fill="none"
                  d="M2351.5186 495.756 L2303.2722 553.0263 L2289.4163 528.8334 Z"
                  clip-path="url(#clipPath2)" fill-rule="evenodd"
                  node-name="total T3" node-id="c63"/>
            <path fill="none"
                  d="M2351.5186 495.756 L2482.8462 425.8074 L2500 431.324 L2500 843.0468 L2476.3159 849.3654 L2473.387 850.0515 L2303.2722 553.0263 Z"
                  clip-path="url(#clipPath2)" fill-rule="evenodd"
                  node-name="total T4" node-id="c64"/>
            <path fill="none"
                  d="M2500 21.2961 L2498.74 21.1407 L2498.0537 19.326 L2500 18.4397 Z"
                  clip-path="url(#clipPath2)" fill-rule="evenodd"
                  node-name="ACTH" node-id="c54"/>
            <path fill="none"
                  d="M2500 24.2903 L2500 26.5435 L2498.7253 24.6585 Z"
                  clip-path="url(#clipPath2)" fill-rule="evenodd"
                  node-name="ADH" node-id="c55"/>
            <path fill="none"
                  d="M2497.1606 22.3444 L2495.572 19.9952 L2498.0537 19.326 L2498.74 21.1407 Z"
                  clip-path="url(#clipPath2)" fill-rule="evenodd"
                  node-name="FSH" node-id="c56"/>
            <path fill="none" d="M2500 3.5545 L2494.1616 0 L2500 0 Z"
                  clip-path="url(#clipPath2)" fill-rule="evenodd" node-name="GH"
                  node-id="c57"/>
            <path fill="none" d="M2488.3582 0 L2484.9966 4.3555 L2482.0515 0 Z"
                  clip-path="url(#clipPath2)" fill-rule="evenodd" node-name="LH"
                  node-id="c58"/>
            <path fill="none"
                  d="M2500 3.5545 L2500 18.4397 L2498.0537 19.326 L2495.572 19.9952 L2484.9966 4.3555 L2488.3582 0 L2494.1616 0 Z"
                  clip-path="url(#clipPath2)" fill-rule="evenodd"
                  node-name="Prolactin" node-id="c59"/>
            <path fill="none"
                  d="M2500 21.2961 L2500 24.2903 L2498.7253 24.6585 L2497.1606 22.3444 L2498.74 21.1407 Z"
                  clip-path="url(#clipPath2)" fill-rule="evenodd"
                  node-name="TSH" node-id="c60"/>
            <path fill="none" d="M19.4857 0 L0 22.9881 L0 0 Z"
                  clip-path="url(#clipPath2)" fill-rule="evenodd"
                  node-name="Melatonin" node-id="c53"/>
            <path fill="none" d="M1708.2072 0 L1707.746 1.16 L1704.7385 0 Z"
                  clip-path="url(#clipPath2)" fill-rule="evenodd"
                  node-name="PTH" node-id="c52"/>
            <path fill="none"
                  d="M1813.5807 2500 L1811.3206 2500 L1810.9001 2497.9863 L1812.4677 2497.1685 Z"
                  clip-path="url(#clipPath2)" fill-rule="evenodd"
                  node-name="Glucagon" node-id="c48"/>
            <path fill="none"
                  d="M1816.3964 2500 L1815.9937 2495.3289 L1821.6356 2492.3853 L1823.3245 2500 Z"
                  clip-path="url(#clipPath2)" fill-rule="evenodd"
                  node-name="Insulin" node-id="c49"/>
            <path fill="none"
                  d="M1815.9937 2495.3289 L1816.3964 2500 L1813.5807 2500 L1812.4677 2497.1685 Z"
                  clip-path="url(#clipPath2)" fill-rule="evenodd"
                  node-name="Pancreatic polypeptide" node-id="c50"/>
            <path fill="none"
                  d="M1810.9001 2497.9863 L1811.3206 2500 L1807.0402 2500 Z"
                  clip-path="url(#clipPath2)" fill-rule="evenodd"
                  node-name="Somatostatin" node-id="c51"/>
            <path fill="none"
                  d="M2232.2849 2128.2617 L2207.4275 2115.8735 L2240.4187 2057.7412 Z"
                  clip-path="url(#clipPath2)" fill-rule="evenodd"
                  node-name="Angiotensin 2" node-id="c43"/>
            <path fill="none"
                  d="M2500 2063.8809 L2500 2261.6809 L2232.2849 2128.2617 L2240.4187 2057.7412 L2264.0989 2016.0157 L2265.2554 2014.7142 Z"
                  clip-path="url(#clipPath2)" fill-rule="evenodd"
                  node-name="Calcidiol" node-id="c44"/>
            <path fill="none"
                  d="M2500 2063.8809 L2265.2554 2014.7142 L2265.1633 2014.1403 L2292.0076 1966.8394 L2500 2001.8445 Z"
                  clip-path="url(#clipPath2)" fill-rule="evenodd"
                  node-name="IGF-1" node-id="c45"/>
            <path fill="none"
                  d="M2500 2001.8445 L2292.0076 1966.8394 L2469.7869 1653.584 L2500 1660.5291 Z"
                  clip-path="url(#clipPath2)" fill-rule="evenodd"
                  node-name="IGF-2" node-id="c46"/>
            <path fill="none"
                  d="M2264.0989 2016.0157 L2265.1633 2014.1403 L2265.2554 2014.7142 Z"
                  clip-path="url(#clipPath2)" fill-rule="evenodd"
                  node-name="Thrombopoietin" node-id="c47"/>
            <path fill="none"
                  d="M1830.4623 2498.7656 L1828.9661 2500 L1823.3245 2500 L1821.6356 2492.3853 L1827.1709 2489.4521 Z"
                  clip-path="url(#clipPath2)" fill-rule="evenodd"
                  node-name="Calcitriol" node-id="c41"/>
            <path fill="none"
                  d="M1830.4623 2498.7656 L1830.8986 2500 L1828.9661 2500 Z"
                  clip-path="url(#clipPath2)" fill-rule="evenodd"
                  node-name="Erythropoietin" node-id="c42"/>
            <path fill="none"
                  d="M2478.2739 848.843 L2478.3413 849.4395 L2476.3159 849.3654 Z"
                  clip-path="url(#clipPath2)" fill-rule="evenodd"
                  node-name="CRH" node-id="c37"/>
            <path fill="none"
                  d="M2500 847.0275 L2500 850.2316 L2499.3469 850.2076 Z"
                  clip-path="url(#clipPath2)" fill-rule="evenodd"
                  node-name="GHRH" node-id="c38"/>
            <path fill="none"
                  d="M2500 846.3577 L2498.6833 843.3981 L2500 843.0468 Z"
                  clip-path="url(#clipPath2)" fill-rule="evenodd"
                  node-name="GnRH" node-id="c39"/>
            <path fill="none"
                  d="M2478.2739 848.843 L2498.6833 843.3981 L2500 846.3577 L2500 847.0275 L2499.3469 850.2076 L2478.3413 849.4395 Z"
                  clip-path="url(#clipPath2)" fill-rule="evenodd"
                  node-name="TRH" node-id="c40"/>
            <path fill="none"
                  d="M73.1117 2500 L72.2237 2500 L72.5129 2499.4304 Z"
                  clip-path="url(#clipPath2)" fill-rule="evenodd"
                  node-name="BNP" node-id="c36"/>
            <path fill="none"
                  d="M2496.6448 850.1088 L2500 850.2316 L2500 856.6229 L2496.0505 855.7053 Z"
                  clip-path="url(#clipPath2)" fill-rule="evenodd"
                  node-name="AMH" node-id="c27"/>
            <path fill="none"
                  d="M2500 856.6229 L2500 923.7735 L2498.501 924.0212 L2476.8201 860.1636 L2481.3682 857.6724 L2489.8181 855.4707 L2496.0505 855.7053 Z"
                  clip-path="url(#clipPath2)" fill-rule="evenodd"
                  node-name="DHT" node-id="c29"/>
            <path fill="none"
                  d="M2489.54 849.849 L2496.6448 850.1088 L2496.0505 855.7053 L2489.8181 855.4707 Z"
                  clip-path="url(#clipPath2)" fill-rule="evenodd"
                  node-name="Estradiol" node-id="c30"/>
            <path fill="none"
                  d="M2480.3501 849.5129 L2481.3682 857.6724 L2476.8201 860.1636 L2473.387 850.0515 L2476.3159 849.3654 Z"
                  clip-path="url(#clipPath2)" fill-rule="evenodd"
                  node-name="Estriol" node-id="c31"/>
            <path fill="none"
                  d="M2480.3501 849.5129 L2489.54 849.849 L2489.8181 855.4707 L2481.3682 857.6724 Z"
                  clip-path="url(#clipPath2)" fill-rule="evenodd"
                  node-name="Estrone" node-id="c32"/>
            <path fill="none"
                  d="M2500 923.7735 L2500 928.4366 L2498.501 924.0212 Z"
                  clip-path="url(#clipPath2)" fill-rule="evenodd"
                  node-name="inhibin B" node-id="c35"/>
            <path fill="none" d="M0 721.2231 L1.6791 722.2064 L0 722.9534 Z"
                  clip-path="url(#clipPath2)" fill-rule="evenodd"
                  node-name="CCK" node-id="c21"/>
            <path fill="none"
                  d="M819.9431 0 L846.7664 0 L848.0079 2.8537 L819.9474 26.8469 L814.8513 14.9191 Z"
                  clip-path="url(#clipPath2)" fill-rule="evenodd"
                  node-name="GLP-1 total" node-id="c22"/>
            <path fill="none" d="M848.0079 2.8537 L846.7664 0 L851.3453 0 Z"
                  clip-path="url(#clipPath2)" fill-rule="evenodd"
                  node-name="Gastrin" node-id="c23"/>
            <path fill="none" d="M808.1744 0 L819.9431 0 L814.8513 14.9191 Z"
                  clip-path="url(#clipPath2)" fill-rule="evenodd"
                  node-name="Ghrelin" node-id="c24"/>
            <path fill="none"
                  d="M0 721.2231 L0 22.9881 L19.4857 0 L808.1744 0 L814.8513 14.9191 L819.9474 26.8469 L4.6774 723.9466 L1.6791 722.2064 Z"
                  clip-path="url(#clipPath2)" fill-rule="evenodd"
                  node-name="Serotonin" node-id="c25"/>
            <path fill="none"
                  d="M0 722.9534 L1.6791 722.2064 L4.6774 723.9466 L0 727.946 Z"
                  clip-path="url(#clipPath2)" fill-rule="evenodd"
                  node-name="Vasoactive intestinal peptide (VIP)" node-id="c26"/>
            <path fill="none"
                  d="M2500 1525.001 L2499.5029 1525.001 L2500 1522.8497 Z"
                  clip-path="url(#clipPath2)" fill-rule="evenodd"
                  node-name="FGF23" node-id="c19"/>
            <path fill="none"
                  d="M2499.5029 1525.001 L2500 1525.001 L2500 1660.5291 L2469.7869 1653.584 Z"
                  clip-path="url(#clipPath2)" fill-rule="evenodd"
                  node-name="Osteocalcin" node-id="c20"/>
            <path fill="none"
                  d="M64.6514 2491.469 L72.5129 2499.4304 L72.2237 2500 L61.0637 2500 Z"
                  clip-path="url(#clipPath2)" fill-rule="evenodd"
                  node-name="Dopamine" node-id="c16"/>
            <path fill="none" d="M15.638 2441.832 L0 2449.0039 L0 2425.9951 Z"
                  clip-path="url(#clipPath2)" fill-rule="evenodd"
                  node-name="Epinephrine" node-id="c17"/>
            <path fill="none"
                  d="M0 2449.0039 L15.638 2441.832 L64.6514 2491.469 L61.0637 2500 L0 2500 Z"
                  clip-path="url(#clipPath2)" fill-rule="evenodd"
                  node-name="Norepinephrin" node-id="c18"/>
            <path fill="none"
                  d="M66.4857 2493.3267 L121.946 2447.4895 L122.0355 2500 L73.1117 2500 L72.5129 2499.4304 Z"
                  clip-path="url(#clipPath2)" fill-rule="evenodd"
                  node-name="17-OH Progesterone" node-id="c9"/>
            <path fill="none"
                  d="M181.7526 2500 L122.0355 2500 L121.946 2447.4895 L122.6336 2446.4863 Z"
                  clip-path="url(#clipPath2)" fill-rule="evenodd"
                  node-name="Androstendione" node-id="c10"/>
            <path fill="none"
                  d="M1952.9716 2365.8608 L1827.1709 2489.4521 L1821.6356 2492.3853 L1807.0402 2500 L1704.5505 2500 Z"
                  clip-path="url(#clipPath2)" fill-rule="evenodd"
                  node-name="DHEA" node-id="c11"/>
            <path fill="none"
                  d="M0 799.22 L58.6389 677.8066 L851.3453 0 L1704.7385 0 L1707.746 1.16 L2289.4163 528.8334 L2473.387 850.0515 L2500 928.4366 L2500 1522.8497 L2469.7869 1653.584 L2207.4275 2115.8735 L1952.9716 2365.8608 L1704.5505 2500 L181.7526 2500 L122.6336 2446.4863 L14.0318 2333.4949 L0 2317.0273 Z"
                  clip-path="url(#clipPath2)" fill-rule="evenodd"
                  node-name="DHEAS" node-id="c12"/>
            <path fill="none" d="M58.6389 677.8066 L0 799.22 L0 727.946 Z"
                  clip-path="url(#clipPath2)" fill-rule="evenodd"
                  node-name="Pregnenolone" node-id="c13"/>
            <path fill="none" d="M0 2317.0273 L14.0318 2333.4949 L0 2340.603 Z"
                  clip-path="url(#clipPath2)" fill-rule="evenodd"
                  node-name="Progesterone" node-id="c14"/>
            <path fill="none"
                  d="M0 2340.603 L14.0318 2333.4949 L122.6336 2446.4863 L121.946 2447.4895 L66.4857 2493.3267 L0 2425.9951 Z"
                  clip-path="url(#clipPath2)" fill-rule="evenodd"
                  node-name="Testosterone" node-id="c15"/>
            <path fill="none"
                  d="M2488.9575 2381.5127 L2492.1335 2391.5847 L2475.8853 2389.5938 Z"
                  clip-path="url(#clipPath2)" fill-rule="evenodd"
                  node-name="11-deoxycorticosterone (DOC)" node-id="c3"/>
            <path fill="none"
                  d="M2500 2486.543 L2500 2500 L2435.4045 2500 L2447.7593 2474.1936 Z"
                  clip-path="url(#clipPath2)" fill-rule="evenodd"
                  node-name="11-deoxycortisol" node-id="c4"/>
            <path fill="none"
                  d="M2500 2486.543 L2447.7593 2474.1936 L2471.3228 2391.4944 L2475.8853 2389.5938 L2492.1335 2391.5847 L2500 2393.9287 Z"
                  clip-path="url(#clipPath2)" fill-rule="evenodd"
                  node-name="17-OH Pregnenolone" node-id="c5"/>
            <path fill="none"
                  d="M2500 2373.7087 L2500 2393.9287 L2492.1335 2391.5847 L2488.9575 2381.5127 Z"
                  clip-path="url(#clipPath2)" fill-rule="evenodd"
                  node-name="Aldosterone" node-id="c6"/>
            <path fill="none"
                  d="M2369.8049 2196.7964 L2500 2261.6809 L2500 2373.7087 L2488.9575 2381.5127 L2475.8853 2389.5938 L2471.3228 2391.4944 Z"
                  clip-path="url(#clipPath2)" fill-rule="evenodd"
                  node-name="Corticosterone" node-id="c7"/>
            <path fill="none"
                  d="M2369.8049 2196.7964 L2471.3228 2391.4944 L2447.7593 2474.1936 L2435.4045 2500 L1830.8986 2500 L1827.1709 2489.4521 L2207.4275 2115.8735 Z"
                  clip-path="url(#clipPath2)" fill-rule="evenodd"
                  node-name="Cortisol" node-id="c8"/>
            <path fill="none"
                  d="M1721.2205 0 L2482.0515 0 L2500 26.5435 L2500 416.6707 L2289.4163 528.8334 L1717.3085 9.8347 Z"
                  clip-path="url(#clipPath2)" fill-rule="evenodd"
                  node-name="Adiponectin" node-id="c1"/>
            <path fill="none"
                  d="M1721.2205 0 L1717.3085 9.8347 L1707.746 1.16 L1708.2072 0 Z"
                  clip-path="url(#clipPath2)" fill-rule="evenodd"
                  node-name="Leptin" node-id="c2"/>
            <path clip-path="url(#clipPath2)" fill="none"
                  node-id="Adipose Tissue" fill-rule="evenodd"
                  d="M1708.2072 0 L2482.0515 0 L2500 26.5435 L2500 416.6707 L2289.4163 528.8334 L1707.746 1.16 Z"
                  stroke-width="2.6056" node-name="Adipose Tissue"/>
            <path clip-path="url(#clipPath2)" fill="none"
                  node-id="Adrenal Cortex" fill-rule="evenodd"
                  d="M2500 2261.6809 L2500 2500 L1830.8986 2500 L1827.1709 2489.4521 L2207.4275 2115.8735 Z"
                  stroke-width="2.6056" node-name="Adrenal Cortex"/>
            <path clip-path="url(#clipPath2)" fill="none"
                  node-id="Adrenal Cortex/Gonads" fill-rule="evenodd"
                  d="M0 2425.9951 L0 727.946 L851.3453 0 L1704.7385 0 L1707.746 1.16 L2289.4163 528.8334 L2473.387 850.0515 L2500 928.4366 L2500 1522.8497 L2469.7869 1653.584 L2207.4275 2115.8735 L1827.1709 2489.4521 L1821.6356 2492.3853 L1807.0402 2500 L73.1117 2500 L72.5129 2499.4304 Z"
                  stroke-width="2.6056" node-name="Adrenal Cortex/Gonads"/>
            <path clip-path="url(#clipPath2)" fill="none"
                  node-id="Adrenal Medulla" fill-rule="evenodd"
                  d="M0 2425.9951 L72.5129 2499.4304 L72.2237 2500 L0 2500 Z"
                  stroke-width="2.6056" node-name="Adrenal Medulla"/>
            <path clip-path="url(#clipPath2)" fill="none" node-id="Bone"
                  fill-rule="evenodd"
                  d="M2500 1522.8497 L2500 1660.5291 L2469.7869 1653.584 Z"
                  stroke-width="2.6056" node-name="Bone"/>
            <path clip-path="url(#clipPath2)" fill="none" node-id="GI Tract"
                  fill-rule="evenodd"
                  d="M0 22.9881 L19.4857 0 L851.3453 0 L0 727.946 Z"
                  stroke-width="2.6056" node-name="GI Tract"/>
            <path clip-path="url(#clipPath2)" fill="none" node-id="Gonads"
                  fill-rule="evenodd"
                  d="M2500 850.2316 L2500 928.4366 L2473.387 850.0515 L2476.3159 849.3654 Z"
                  stroke-width="2.6056" node-name="Gonads"/>
            <path clip-path="url(#clipPath2)" fill="none" node-id="Heart"
                  fill-rule="evenodd"
                  d="M73.1117 2500 L72.2237 2500 L72.5129 2499.4304 Z"
                  stroke-width="2.6056" node-name="Heart"/>
            <path clip-path="url(#clipPath2)" fill="none" node-id="Hypothalamus"
                  fill-rule="evenodd"
                  d="M2500 843.0468 L2500 850.2316 L2476.3159 849.3654 Z"
                  stroke-width="2.6056" node-name="Hypothalamus"/>
            <path clip-path="url(#clipPath2)" fill="none" node-id="Kidney"
                  fill-rule="evenodd"
                  d="M1830.8986 2500 L1823.3245 2500 L1821.6356 2492.3853 L1827.1709 2489.4521 Z"
                  stroke-width="2.6056" node-name="Kidney"/>
            <path clip-path="url(#clipPath2)" fill="none" node-id="Liver"
                  fill-rule="evenodd"
                  d="M2500 1660.5291 L2500 2261.6809 L2207.4275 2115.8735 L2469.7869 1653.584 Z"
                  stroke-width="2.6056" node-name="Liver"/>
            <path clip-path="url(#clipPath2)" fill="none" node-id="Pancreas"
                  fill-rule="evenodd"
                  d="M1823.3245 2500 L1807.0402 2500 L1821.6356 2492.3853 Z"
                  stroke-width="2.6056" node-name="Pancreas"/>
            <path clip-path="url(#clipPath2)" fill="none" node-id="Parathyroid"
                  fill-rule="evenodd"
                  d="M1708.2072 0 L1707.746 1.16 L1704.7385 0 Z"
                  stroke-width="2.6056" node-name="Parathyroid"/>
            <path clip-path="url(#clipPath2)" fill="none" node-id="Pineal"
                  fill-rule="evenodd" d="M19.4857 0 L0 22.9881 L0 0 Z"
                  stroke-width="2.6056" node-name="Pineal"/>
            <path clip-path="url(#clipPath2)" fill="none" node-id="Pituitary"
                  fill-rule="evenodd" d="M2500 26.5435 L2482.0515 0 L2500 0 Z"
                  stroke-width="2.6056" node-name="Pituitary"/>
            <path clip-path="url(#clipPath2)" fill="none" node-id="Thyroid"
                  fill-rule="evenodd"
                  d="M2500 416.6707 L2500 843.0468 L2476.3159 849.3654 L2473.387 850.0515 L2289.4163 528.8334 Z"
                  stroke-width="2.6056" node-name="Thyroid"/>
            <path clip-path="url(#clipPath2)" fill="none" node-id="Hormone"
                  fill-rule="evenodd" d="M0 0 L2500 0 L2500 2500 L0 2500 Z"
                  stroke-width="12" node-name="Hormone"/>
        </g>
        <g font-size="89.0596px" transform="translate(6,6)"
           text-rendering="optimizeLegibility" image-rendering="optimizeSpeed"
           color-rendering="optimizeSpeed" font-family="sans-serif"
           color-interpolation="sRGB" font-weight="bold">
            <text x="2063.75" y="167.0216" clip-path="url(#clipPath2)"
                  node-id="Adipose Tissue" stroke="none"
                  node-name="Adipose Tissue" xml:space="preserve">Adipose</text><text x="2062.75"
                  y="166.0216" clip-path="url(#clipPath2)" fill="white"
                  node-id="Adipose Tissue" stroke="none"
                  node-name="Adipose Tissue" xml:space="preserve">Adipose</text><text x="2103.9746"
                  y="256.0811" clip-path="url(#clipPath2)"
                  node-id="Adipose Tissue" stroke="none"
                  node-name="Adipose Tissue" xml:space="preserve">Tissue</text><text x="2102.9746"
                  y="255.0811" clip-path="url(#clipPath2)" fill="white"
                  node-id="Adipose Tissue" stroke="none"
                  node-name="Adipose Tissue" xml:space="preserve">Tissue</text><text x="2087.2988"
                  font-size="81.6276px" y="2389.0737"
                  clip-path="url(#clipPath2)" node-id="Adrenal Cortex"
                  stroke="none" node-name="Adrenal Cortex" xml:space="preserve">Adrenal</text><text x="2086.2988"
                  font-size="81.6276px" y="2388.0737"
                  clip-path="url(#clipPath2)" fill="white"
                  node-id="Adrenal Cortex" stroke="none"
                  node-name="Adrenal Cortex" xml:space="preserve">Adrenal</text><text x="2114.8599"
                  font-size="81.6276px" y="2470.7012"
                  clip-path="url(#clipPath2)" node-id="Adrenal Cortex"
                  stroke="none" node-name="Adrenal Cortex" xml:space="preserve">Cortex</text><text x="2113.8599"
                  font-size="81.6276px" y="2469.7012"
                  clip-path="url(#clipPath2)" fill="white"
                  node-id="Adrenal Cortex" stroke="none"
                  node-name="Adrenal Cortex" xml:space="preserve">Cortex</text><text x="355.3019"
                  font-size="378.244px" y="1184.62" clip-path="url(#clipPath2)"
                  node-id="Adrenal Cortex/Gonads" stroke="none"
                  node-name="Adrenal Cortex/Gonads" xml:space="preserve">Adrenal</text><text x="354.3019"
                  font-size="378.244px" y="1183.62" clip-path="url(#clipPath2)"
                  fill="white" node-id="Adrenal Cortex/Gonads" stroke="none"
                  node-name="Adrenal Cortex/Gonads" xml:space="preserve">Adrenal</text><text x="413.9408"
                  font-size="378.244px" y="1562.8639"
                  clip-path="url(#clipPath2)" node-id="Adrenal Cortex/Gonads"
                  stroke="none" node-name="Adrenal Cortex/Gonads"
                  xml:space="preserve">Cortex/</text><text x="412.9408"
                  font-size="378.244px" y="1561.8639"
                  clip-path="url(#clipPath2)" fill="white"
                  node-id="Adrenal Cortex/Gonads" stroke="none"
                  node-name="Adrenal Cortex/Gonads" xml:space="preserve">Cortex/</text><text x="390.3005"
                  font-size="378.244px" y="1941.1079"
                  clip-path="url(#clipPath2)" node-id="Adrenal Cortex/Gonads"
                  stroke="none" node-name="Adrenal Cortex/Gonads"
                  xml:space="preserve">Gonads</text><text x="389.3005"
                  font-size="378.244px" y="1940.1079"
                  clip-path="url(#clipPath2)" fill="white"
                  node-id="Adrenal Cortex/Gonads" stroke="none"
                  node-name="Adrenal Cortex/Gonads" xml:space="preserve">Gonads</text><text x="7.2689"
                  font-size="7.5968px" y="2478.0667" clip-path="url(#clipPath2)"
                  node-id="Adrenal Medulla" stroke="none"
                  node-name="Adrenal Medulla" xml:space="preserve">Adrenal</text><text x="6.2689"
                  font-size="7.5968px" y="2477.0667" clip-path="url(#clipPath2)"
                  fill="white" node-id="Adrenal Medulla" stroke="none"
                  node-name="Adrenal Medulla" xml:space="preserve">Adrenal</text><text x="7"
                  font-size="7.5968px" y="2485.6636" clip-path="url(#clipPath2)"
                  node-id="Adrenal Medulla" stroke="none"
                  node-name="Adrenal Medulla" xml:space="preserve">Medulla</text><text x="6"
                  font-size="7.5968px" y="2484.6636" clip-path="url(#clipPath2)"
                  fill="white" node-id="Adrenal Medulla" stroke="none"
                  node-name="Adrenal Medulla" xml:space="preserve">Medulla</text><text x="2478.0869"
                  font-size="5.9567px" y="1618.3271" clip-path="url(#clipPath2)"
                  node-id="Bone" stroke="none" node-name="Bone"
                  xml:space="preserve">Bone</text><text x="2477.0869"
                  font-size="5.9567px" y="1617.3271" clip-path="url(#clipPath2)"
                  fill="white" node-id="Bone" stroke="none" node-name="Bone"
                  xml:space="preserve">Bone</text><text x="145.0698"
                  font-size="122.6617px" y="191.796" clip-path="url(#clipPath2)"
                  node-id="GI Tract" stroke="none" node-name="GI Tract"
                  xml:space="preserve">GI</text><text x="144.0698"
                  font-size="122.6617px" y="190.796" clip-path="url(#clipPath2)"
                  fill="white" node-id="GI Tract" stroke="none"
                  node-name="GI Tract" xml:space="preserve">GI</text><text x="39.0885"
                  font-size="122.6617px" y="314.4577"
                  clip-path="url(#clipPath2)" node-id="GI Tract" stroke="none"
                  node-name="GI Tract" xml:space="preserve">Tract</text><text x="38.0885"
                  font-size="122.6617px" y="313.4577"
                  clip-path="url(#clipPath2)" fill="white" node-id="GI Tract"
                  stroke="none" node-name="GI Tract" xml:space="preserve">Tract</text><text x="2480.6125"
                  font-size="3.421px" y="877.0238" clip-path="url(#clipPath2)"
                  node-id="Gonads" stroke="none" node-name="Gonads"
                  xml:space="preserve">Gonads</text><text x="2479.6125"
                  font-size="3.421px" y="876.0238" clip-path="url(#clipPath2)"
                  fill="white" node-id="Gonads" stroke="none" node-name="Gonads"
                  xml:space="preserve">Gonads</text><text x="2483.5803"
                  font-size="1.4058px" y="849.1255" clip-path="url(#clipPath2)"
                  node-id="Hypothalamus" stroke="none" node-name="Hypothalamus"
                  xml:space="preserve">Hypothalamus</text><text x="2482.5803"
                  font-size="1.4058px" y="848.1255" clip-path="url(#clipPath2)"
                  fill="white" node-id="Hypothalamus" stroke="none"
                  node-name="Hypothalamus" xml:space="preserve">Hypothalamus</text><text x="1824.1635"
                  font-size="1.4107px" y="2495" clip-path="url(#clipPath2)"
                  node-id="Kidney" stroke="none" node-name="Kidney"
                  xml:space="preserve">Kidney</text><text x="1823.1635"
                  font-size="1.4107px" y="2494" clip-path="url(#clipPath2)"
                  fill="white" node-id="Kidney" stroke="none" node-name="Kidney"
                  xml:space="preserve">Kidney</text><text x="2312.6685"
                  font-size="61.2939px" y="2030.0846"
                  clip-path="url(#clipPath2)" node-id="Liver" stroke="none"
                  node-name="Liver" xml:space="preserve">Liver</text><text x="2311.6685"
                  font-size="61.2939px" y="2029.0846"
                  clip-path="url(#clipPath2)" fill="white" node-id="Liver"
                  stroke="none" node-name="Liver" xml:space="preserve">Liver</text><text x="1815.8807"
                  font-size="1.358px" y="2495" clip-path="url(#clipPath2)"
                  node-id="Pancreas" stroke="none" node-name="Pancreas"
                  xml:space="preserve">Pancreas</text><text x="1814.8807"
                  font-size="1.358px" y="2494" clip-path="url(#clipPath2)"
                  fill="white" node-id="Pancreas" stroke="none"
                  node-name="Pancreas" xml:space="preserve">Pancreas</text><text x="7"
                  font-size="2.7893px" y="9.4037" clip-path="url(#clipPath2)"
                  node-id="Pineal" stroke="none" node-name="Pineal"
                  xml:space="preserve">Pineal</text><text x="6"
                  font-size="2.7893px" y="8.4037" clip-path="url(#clipPath2)"
                  fill="white" node-id="Pineal" stroke="none" node-name="Pineal"
                  xml:space="preserve">Pineal</text><text x="2485.5503"
                  font-size="1.926px" y="10.2896" clip-path="url(#clipPath2)"
                  node-id="Pituitary" stroke="none" node-name="Pituitary"
                  xml:space="preserve">Pituitary</text><text x="2484.5503"
                  font-size="1.926px" y="9.2896" clip-path="url(#clipPath2)"
                  fill="white" node-id="Pituitary" stroke="none"
                  node-name="Pituitary" xml:space="preserve">Pituitary</text><text x="2357.511"
                  font-size="30.4822px" y="613.0187" clip-path="url(#clipPath2)"
                  node-id="Thyroid" stroke="none" node-name="Thyroid"
                  xml:space="preserve">Thyroid</text><text x="2356.511"
                  font-size="30.4822px" y="612.0187" clip-path="url(#clipPath2)"
                  fill="white" node-id="Thyroid" stroke="none"
                  node-name="Thyroid" xml:space="preserve">Thyroid</text>
        </g>
    </g>
</svg>